EESchema Schematic File Version 2
LIBS:SchematicLib
LIBS:power
LIBS:device
LIBS:switches
LIBS:relays
LIBS:motors
LIBS:transistors
LIBS:conn
LIBS:linear
LIBS:regul
LIBS:74xx
LIBS:cmos4000
LIBS:adc-dac
LIBS:memory
LIBS:xilinx
LIBS:microcontrollers
LIBS:dsp
LIBS:microchip
LIBS:analog_switches
LIBS:motorola
LIBS:texas
LIBS:intel
LIBS:audio
LIBS:interface
LIBS:digital-audio
LIBS:philips
LIBS:display
LIBS:cypress
LIBS:siliconi
LIBS:opto
LIBS:atmel
LIBS:contrib
LIBS:valves
LIBS:MainControlUnit-cache
EELAYER 25 0
EELAYER END
$Descr A4 11693 8268
encoding utf-8
Sheet 3 11
Title ""
Date ""
Rev ""
Comp ""
Comment1 ""
Comment2 ""
Comment3 ""
Comment4 ""
$EndDescr
$Comp
L R R9
U 1 1 5B20C37B
P 6050 2900
F 0 "R9" V 6130 2900 50  0000 C CNN
F 1 "100" V 6050 2900 50  0000 C CNN
F 2 "Resistors_SMD:R_0603_HandSoldering" V 5980 2900 50  0001 C CNN
F 3 "" H 6050 2900 50  0001 C CNN
	1    6050 2900
	0    1    1    0   
$EndComp
$Comp
L R R7
U 1 1 5B20C37C
P 4800 3000
F 0 "R7" V 4880 3000 50  0000 C CNN
F 1 "100" V 4800 3000 50  0000 C CNN
F 2 "Resistors_SMD:R_0603_HandSoldering" V 4730 3000 50  0001 C CNN
F 3 "" H 4800 3000 50  0001 C CNN
	1    4800 3000
	0    1    1    0   
$EndComp
$Comp
L Testpoint P10
U 1 1 5B20C37E
P 5000 2150
F 0 "P10" H 5000 2230 50  0000 C CNN
F 1 "Testpoint" H 5190 2160 50  0001 C CNN
F 2 "FootprintLib:Testpoint_0.4mm" H 5000 2150 100 0001 C CNN
F 3 "" H 5000 2150 100 0001 C CNN
	1    5000 2150
	1    0    0    -1  
$EndComp
$Comp
L Testpoint P12
U 1 1 5B20C37F
P 5800 2150
F 0 "P12" H 5800 2230 50  0000 C CNN
F 1 "Testpoint" H 5990 2160 50  0001 C CNN
F 2 "FootprintLib:Testpoint_0.4mm" H 5800 2150 100 0001 C CNN
F 3 "" H 5800 2150 100 0001 C CNN
	1    5800 2150
	1    0    0    -1  
$EndComp
$Comp
L Testpoint P13
U 1 1 5B20C380
P 6250 2850
F 0 "P13" H 6250 2930 50  0000 C CNN
F 1 "Testpoint" H 6440 2860 50  0001 C CNN
F 2 "FootprintLib:Testpoint_0.4mm" H 6250 2850 100 0001 C CNN
F 3 "" H 6250 2850 100 0001 C CNN
	1    6250 2850
	1    0    0    -1  
$EndComp
$Comp
L R R8
U 1 1 5B20C381
P 5400 2200
F 0 "R8" V 5480 2200 50  0000 C CNN
F 1 "0" V 5400 2200 50  0000 C CNN
F 2 "Resistors_SMD:R_0603_HandSoldering" V 5330 2200 50  0001 C CNN
F 3 "" H 5400 2200 50  0001 C CNN
	1    5400 2200
	0    1    1    0   
$EndComp
$Comp
L GNDA #PWR027
U 1 1 5B20C382
P 5350 3400
F 0 "#PWR027" H 5350 3150 50  0001 C CNN
F 1 "GNDA" H 5350 3250 50  0000 C CNN
F 2 "" H 5350 3400 50  0001 C CNN
F 3 "" H 5350 3400 50  0001 C CNN
	1    5350 3400
	1    0    0    -1  
$EndComp
$Comp
L JUMPER JP2
U 1 1 5B20C383
P 5800 3400
F 0 "JP2" H 5800 3450 50  0000 C CNN
F 1 "JUMPER" H 5850 3300 50  0001 C CNN
F 2 "FootprintLib:SOLDER_JUMPER" H 5800 3400 50  0001 C CNN
F 3 "" H 5800 3400 50  0001 C CNN
	1    5800 3400
	0    1    1    0   
$EndComp
$Comp
L C C5
U 1 1 5B20C384
P 6250 3100
F 0 "C5" H 6275 3200 50  0000 L CNN
F 1 "100n" H 6275 3000 50  0000 L CNN
F 2 "Capacitors_SMD:C_0603_HandSoldering" H 6288 2950 50  0001 C CNN
F 3 "" H 6250 3100 50  0001 C CNN
	1    6250 3100
	1    0    0    -1  
$EndComp
$Comp
L GNDA #PWR028
U 1 1 5B20C385
P 6250 3300
F 0 "#PWR028" H 6250 3050 50  0001 C CNN
F 1 "GNDA" H 6250 3150 50  0000 C CNN
F 2 "" H 6250 3300 50  0001 C CNN
F 3 "" H 6250 3300 50  0001 C CNN
	1    6250 3300
	1    0    0    -1  
$EndComp
$Comp
L GNDA #PWR029
U 1 1 5B20C386
P 4450 3400
F 0 "#PWR029" H 4450 3150 50  0001 C CNN
F 1 "GNDA" H 4450 3250 50  0000 C CNN
F 2 "" H 4450 3400 50  0001 C CNN
F 3 "" H 4450 3400 50  0001 C CNN
	1    4450 3400
	1    0    0    -1  
$EndComp
$Comp
L BAT54S D4
U 1 1 5B20C387
P 4450 3000
F 0 "D4" H 4550 3050 50  0000 C CNN
F 1 "BAT54S" V 4500 2750 50  0000 C CNN
F 2 "TO_SOT_Packages_SMD:SOT-23_Handsoldering" V 4445 2950 50  0001 C CNN
F 3 "" V 4445 2950 50  0001 C CNN
	1    4450 3000
	1    0    0    -1  
$EndComp
$Comp
L JUMPER JP3
U 1 1 5B20C388
P 6450 2900
F 0 "JP3" H 6450 2950 50  0000 C CNN
F 1 "JUMPER" H 6500 2800 50  0001 C CNN
F 2 "FootprintLib:SOLDER_JUMPER" H 6450 2900 50  0001 C CNN
F 3 "" H 6450 2900 50  0001 C CNN
	1    6450 2900
	1    0    0    -1  
$EndComp
$Comp
L C C4
U 1 1 5B20C389
P 5000 3200
F 0 "C4" V 5100 3050 50  0000 L CNN
F 1 "100n" V 5100 3250 50  0000 L CNN
F 2 "Capacitors_SMD:C_0603_HandSoldering" H 5038 3050 50  0001 C CNN
F 3 "" H 5000 3200 50  0001 C CNN
	1    5000 3200
	1    0    0    -1  
$EndComp
$Comp
L GNDA #PWR030
U 1 1 5B20C38A
P 5000 3400
F 0 "#PWR030" H 5000 3150 50  0001 C CNN
F 1 "GNDA" H 5000 3250 50  0000 C CNN
F 2 "" H 5000 3400 50  0001 C CNN
F 3 "" H 5000 3400 50  0001 C CNN
	1    5000 3400
	1    0    0    -1  
$EndComp
$Comp
L MCP6001U U2
U 1 1 5B20C38B
P 5350 2900
F 0 "U2" H 5500 3050 60  0000 C CNN
F 1 "MCP6001U" H 5600 2700 50  0000 C CNN
F 2 "TO_SOT_Packages_SMD:SOT-23-5_HandSoldering" H 5350 2900 60  0001 C CNN
F 3 "" H 5350 2900 60  0001 C CNN
	1    5350 2900
	1    0    0    -1  
$EndComp
$Comp
L R_1% R5
U 1 1 5B20C38C
P 3850 2800
F 0 "R5" V 3950 2750 50  0000 C CNN
F 1 "169K" V 3765 2805 50  0000 C CNN
F 2 "Resistors_SMD:R_0603_HandSoldering" V 3780 2800 50  0001 C CNN
F 3 "" H 3850 2800 50  0001 C CNN
	1    3850 2800
	-1   0    0    1   
$EndComp
$Comp
L R_1% R6
U 1 1 5B20C38D
P 3850 3200
F 0 "R6" V 3950 3150 50  0000 C CNN
F 1 "169K" V 3765 3205 50  0000 C CNN
F 2 "Resistors_SMD:R_0603_HandSoldering" V 3780 3200 50  0001 C CNN
F 3 "" H 3850 3200 50  0001 C CNN
	1    3850 3200
	-1   0    0    1   
$EndComp
Connection ~ 3850 3000
Wire Wire Line
	3850 2950 3850 3050
Wire Wire Line
	4450 2750 4450 2850
Connection ~ 4600 3000
Wire Wire Line
	4600 3000 4600 3650
Wire Wire Line
	4600 3650 5800 3650
Wire Wire Line
	5800 3650 5800 3500
Wire Wire Line
	4450 3400 4450 3150
Wire Wire Line
	5000 3400 5000 3350
Connection ~ 5000 3000
Wire Wire Line
	4950 3000 5050 3000
Connection ~ 4400 3000
Wire Wire Line
	6550 2900 6750 2900
Wire Wire Line
	6250 3300 6250 3250
Wire Wire Line
	5350 2500 5350 2650
Wire Wire Line
	5350 3150 5350 3400
Connection ~ 6250 2900
Wire Wire Line
	6250 2850 6250 2950
Wire Wire Line
	6200 2900 6350 2900
Connection ~ 5800 2900
Connection ~ 5800 2200
Wire Wire Line
	5750 2900 5900 2900
Wire Wire Line
	5800 2150 5800 3300
Wire Wire Line
	5550 2200 5800 2200
Connection ~ 5000 2200
Wire Wire Line
	5250 2200 5000 2200
Wire Wire Line
	5000 2150 5000 2800
Wire Wire Line
	5000 2800 5050 2800
Wire Wire Line
	3850 3000 4650 3000
Wire Wire Line
	3850 3450 3850 3350
Text HLabel 6750 2900 2    60   Input ~ 0
VoltageADC
Text HLabel 3300 2600 0    60   Input ~ 0
Vbat
Wire Wire Line
	3300 2600 3850 2600
Wire Wire Line
	3850 2600 3850 2650
Text HLabel 5450 4350 2    60   Input ~ 0
Vcc
Text HLabel 5450 4750 2    60   Input ~ 0
GND
$Comp
L C C3
U 1 1 5B20DC98
P 4950 4550
F 0 "C3" H 4975 4650 50  0000 L CNN
F 1 "100n" H 4975 4450 50  0000 L CNN
F 2 "Capacitors_SMD:C_0603_HandSoldering" H 4988 4400 50  0001 C CNN
F 3 "" H 4950 4550 50  0001 C CNN
	1    4950 4550
	1    0    0    -1  
$EndComp
Wire Wire Line
	4350 4750 5450 4750
Wire Wire Line
	4950 4350 4950 4400
Wire Wire Line
	4150 4350 5100 4350
$Comp
L C C2
U 1 1 5B20E52A
P 4600 4550
F 0 "C2" H 4625 4650 50  0000 L CNN
F 1 "22u" H 4625 4450 50  0000 L CNN
F 2 "Capacitors_SMD:C_0603_HandSoldering" H 4638 4400 50  0001 C CNN
F 3 "" H 4600 4550 50  0001 C CNN
	1    4600 4550
	1    0    0    -1  
$EndComp
$Comp
L L L1
U 1 1 5B20E531
P 5250 4350
F 0 "L1" H 5150 4400 50  0000 C CNN
F 1 "L" H 5350 4400 50  0000 C CNN
F 2 "Inductors_SMD:L_0805_HandSoldering" V 5250 4350 50  0001 C CNN
F 3 "" V 5250 4350 50  0001 C CNN
F 4 "Type" H 5250 4300 50  0000 C CNN "Type"
	1    5250 4350
	1    0    0    -1  
$EndComp
$Comp
L GNDA #PWR031
U 1 1 5B20E52B
P 4350 4800
F 0 "#PWR031" H 4350 4550 50  0001 C CNN
F 1 "GNDA" H 4350 4650 50  0000 C CNN
F 2 "" H 4350 4800 50  0001 C CNN
F 3 "" H 4350 4800 50  0001 C CNN
	1    4350 4800
	1    0    0    -1  
$EndComp
Wire Wire Line
	5400 4350 5450 4350
Connection ~ 4950 4750
Wire Wire Line
	4600 4750 4600 4700
Wire Wire Line
	4600 4400 4600 4350
Connection ~ 4950 4350
Wire Wire Line
	4950 4700 4950 4750
Wire Wire Line
	4350 4750 4350 4800
Connection ~ 4600 4750
Connection ~ 4600 4350
$Comp
L GNDA #PWR032
U 1 1 5B20FFE2
P 3850 3450
F 0 "#PWR032" H 3850 3200 50  0001 C CNN
F 1 "GNDA" H 3850 3300 50  0000 C CNN
F 2 "" H 3850 3450 50  0001 C CNN
F 3 "" H 3850 3450 50  0001 C CNN
	1    3850 3450
	1    0    0    -1  
$EndComp
$Comp
L Testpoint P9
U 1 1 5B23971A
P 4150 2950
F 0 "P9" H 4150 3030 50  0000 C CNN
F 1 "Testpoint" H 4340 2960 50  0001 C CNN
F 2 "FootprintLib:Testpoint_0.4mm" H 4150 2950 100 0001 C CNN
F 3 "" H 4150 2950 100 0001 C CNN
	1    4150 2950
	1    0    0    -1  
$EndComp
Wire Wire Line
	4150 2950 4150 3000
Connection ~ 4150 3000
Text Notes 800  1200 0    100  ~ 0
SchematicLib is required for this schematic. \nPlease write to siecinski.kamil@gmail.com if you need access to this library. \nIt is totally free.
Text Label 4150 4350 0    60   ~ 0
VCC_MCP
Text Label 4850 2750 2    60   ~ 0
VCC_MCP
Text Label 5700 2500 2    60   ~ 0
VCC_MCP
Wire Wire Line
	5350 2500 5700 2500
Wire Wire Line
	4450 2750 4850 2750
$Comp
L Testpoint P29
U 1 1 5B2E6ED4
P 6650 2850
F 0 "P29" H 6650 2930 50  0000 C CNN
F 1 "Testpoint" H 6840 2860 50  0001 C CNN
F 2 "FootprintLib:Testpoint_0.4mm" H 6650 2850 100 0001 C CNN
F 3 "" H 6650 2850 100 0001 C CNN
	1    6650 2850
	1    0    0    -1  
$EndComp
Wire Wire Line
	6650 2850 6650 2900
Connection ~ 6650 2900
Wire Wire Line
	5000 3050 5000 3000
$EndSCHEMATC
