EESchema Schematic File Version 2
LIBS:SchematicLib
LIBS:power
LIBS:device
LIBS:switches
LIBS:relays
LIBS:motors
LIBS:transistors
LIBS:conn
LIBS:linear
LIBS:regul
LIBS:74xx
LIBS:cmos4000
LIBS:adc-dac
LIBS:memory
LIBS:xilinx
LIBS:microcontrollers
LIBS:dsp
LIBS:microchip
LIBS:analog_switches
LIBS:motorola
LIBS:texas
LIBS:intel
LIBS:audio
LIBS:interface
LIBS:digital-audio
LIBS:philips
LIBS:display
LIBS:cypress
LIBS:siliconi
LIBS:opto
LIBS:atmel
LIBS:contrib
LIBS:valves
LIBS:MainControlUnit-cache
EELAYER 25 0
EELAYER END
$Descr A4 11693 8268
encoding utf-8
Sheet 4 11
Title ""
Date ""
Rev ""
Comp ""
Comment1 ""
Comment2 ""
Comment3 ""
Comment4 ""
$EndDescr
$Comp
L R_1% R10
U 1 1 5B21A267
P 4050 1950
F 0 "R10" V 4135 1945 50  0000 C CNN
F 1 "0R1" V 3965 1955 50  0000 C CNN
F 2 "Resistors_SMD:R_0603_HandSoldering" V 3980 1950 50  0001 C CNN
F 3 "" H 4050 1950 50  0001 C CNN
	1    4050 1950
	0    1    1    0   
$EndComp
$Comp
L Testpoint P21
U 1 1 5B21A268
P 7350 2600
F 0 "P21" H 7350 2680 50  0000 C CNN
F 1 "Testpoint" H 7540 2610 50  0001 C CNN
F 2 "FootprintLib:Testpoint_0.4mm" H 7350 2600 100 0001 C CNN
F 3 "" H 7350 2600 100 0001 C CNN
	1    7350 2600
	1    0    0    -1  
$EndComp
$Comp
L Testpoint P16
U 1 1 5B21A285
P 4900 2800
F 0 "P16" H 4900 2880 50  0000 C CNN
F 1 "Testpoint" H 5090 2810 50  0001 C CNN
F 2 "FootprintLib:Testpoint_0.4mm" H 4900 2800 100 0001 C CNN
F 3 "" H 4900 2800 100 0001 C CNN
	1    4900 2800
	1    0    0    -1  
$EndComp
$Comp
L R R13
U 1 1 5B21A286
P 6750 2750
F 0 "R13" V 6830 2750 50  0000 C CNN
F 1 "100" V 6750 2750 50  0000 C CNN
F 2 "Resistors_SMD:R_0603_HandSoldering" V 6680 2750 50  0001 C CNN
F 3 "" H 6750 2750 50  0001 C CNN
	1    6750 2750
	0    1    1    0   
$EndComp
$Comp
L R R11
U 1 1 5B21A287
P 5500 2850
F 0 "R11" V 5580 2850 50  0000 C CNN
F 1 "100" V 5500 2850 50  0000 C CNN
F 2 "Resistors_SMD:R_0603_HandSoldering" V 5430 2850 50  0001 C CNN
F 3 "" H 5500 2850 50  0001 C CNN
	1    5500 2850
	0    1    1    0   
$EndComp
$Comp
L Testpoint P18
U 1 1 5B21A288
P 5700 2800
F 0 "P18" H 5700 2880 50  0000 C CNN
F 1 "Testpoint" H 5890 2810 50  0001 C CNN
F 2 "FootprintLib:Testpoint_0.4mm" H 5700 2800 100 0001 C CNN
F 3 "" H 5700 2800 100 0001 C CNN
	1    5700 2800
	1    0    0    -1  
$EndComp
$Comp
L Testpoint P19
U 1 1 5B21A28A
P 6500 2150
F 0 "P19" H 6500 2230 50  0000 C CNN
F 1 "Testpoint" H 6690 2160 50  0001 C CNN
F 2 "FootprintLib:Testpoint_0.4mm" H 6500 2150 100 0001 C CNN
F 3 "" H 6500 2150 100 0001 C CNN
	1    6500 2150
	1    0    0    -1  
$EndComp
$Comp
L Testpoint P20
U 1 1 5B21A28B
P 6950 2600
F 0 "P20" H 6950 2680 50  0000 C CNN
F 1 "Testpoint" H 7140 2610 50  0001 C CNN
F 2 "FootprintLib:Testpoint_0.4mm" H 6950 2600 100 0001 C CNN
F 3 "" H 6950 2600 100 0001 C CNN
	1    6950 2600
	1    0    0    -1  
$EndComp
$Comp
L R R12
U 1 1 5B21A28C
P 6250 2200
F 0 "R12" V 6330 2200 50  0000 C CNN
F 1 "0" V 6250 2200 50  0000 C CNN
F 2 "Resistors_SMD:R_0603_HandSoldering" V 6180 2200 50  0001 C CNN
F 3 "" H 6250 2200 50  0001 C CNN
	1    6250 2200
	0    1    1    0   
$EndComp
$Comp
L GNDA #PWR033
U 1 1 5B21A28D
P 6050 3250
F 0 "#PWR033" H 6050 3000 50  0001 C CNN
F 1 "GNDA" H 6050 3100 50  0000 C CNN
F 2 "" H 6050 3250 50  0001 C CNN
F 3 "" H 6050 3250 50  0001 C CNN
	1    6050 3250
	1    0    0    -1  
$EndComp
$Comp
L JUMPER JP4
U 1 1 5B21A28E
P 6500 3250
F 0 "JP4" H 6500 3300 50  0000 C CNN
F 1 "JUMPER" H 6550 3150 50  0001 C CNN
F 2 "FootprintLib:SOLDER_JUMPER" H 6500 3250 50  0001 C CNN
F 3 "" H 6500 3250 50  0001 C CNN
	1    6500 3250
	0    1    1    0   
$EndComp
$Comp
L C C10
U 1 1 5B21A28F
P 6950 2950
F 0 "C10" H 6975 3050 50  0000 L CNN
F 1 "100n" H 6975 2850 50  0000 L CNN
F 2 "Capacitors_SMD:C_0603_HandSoldering" H 6988 2800 50  0001 C CNN
F 3 "" H 6950 2950 50  0001 C CNN
	1    6950 2950
	1    0    0    -1  
$EndComp
$Comp
L GNDA #PWR034
U 1 1 5B21A290
P 6950 3150
F 0 "#PWR034" H 6950 2900 50  0001 C CNN
F 1 "GNDA" H 6950 3000 50  0000 C CNN
F 2 "" H 6950 3150 50  0001 C CNN
F 3 "" H 6950 3150 50  0001 C CNN
	1    6950 3150
	1    0    0    -1  
$EndComp
$Comp
L GNDA #PWR035
U 1 1 5B21A291
P 5150 3250
F 0 "#PWR035" H 5150 3000 50  0001 C CNN
F 1 "GNDA" H 5150 3100 50  0000 C CNN
F 2 "" H 5150 3250 50  0001 C CNN
F 3 "" H 5150 3250 50  0001 C CNN
	1    5150 3250
	1    0    0    -1  
$EndComp
$Comp
L BAT54S D5
U 1 1 5B21A292
P 5150 2850
F 0 "D5" H 5250 2900 50  0000 C CNN
F 1 "BAT54S" V 5200 2600 50  0000 C CNN
F 2 "TO_SOT_Packages_SMD:SOT-23_Handsoldering" V 5145 2800 50  0001 C CNN
F 3 "" V 5145 2800 50  0001 C CNN
	1    5150 2850
	1    0    0    -1  
$EndComp
$Comp
L JUMPER JP5
U 1 1 5B21A293
P 7100 2650
F 0 "JP5" H 7100 2700 50  0000 C CNN
F 1 "JUMPER" H 7150 2550 50  0001 C CNN
F 2 "FootprintLib:SOLDER_JUMPER" H 7100 2650 50  0001 C CNN
F 3 "" H 7100 2650 50  0001 C CNN
	1    7100 2650
	1    0    0    -1  
$EndComp
$Comp
L C C9
U 1 1 5B21A294
P 5700 3050
F 0 "C9" V 5800 2900 50  0000 L CNN
F 1 "100n" V 5800 3100 50  0000 L CNN
F 2 "Capacitors_SMD:C_0603_HandSoldering" H 5738 2900 50  0001 C CNN
F 3 "" H 5700 3050 50  0001 C CNN
	1    5700 3050
	1    0    0    -1  
$EndComp
$Comp
L GNDA #PWR036
U 1 1 5B21A295
P 5700 3250
F 0 "#PWR036" H 5700 3000 50  0001 C CNN
F 1 "GNDA" H 5700 3100 50  0000 C CNN
F 2 "" H 5700 3250 50  0001 C CNN
F 3 "" H 5700 3250 50  0001 C CNN
	1    5700 3250
	1    0    0    -1  
$EndComp
$Comp
L GNDA #PWR037
U 1 1 5B21A29C
P 3400 2800
F 0 "#PWR037" H 3400 2550 50  0001 C CNN
F 1 "GNDA" H 3400 2650 50  0000 C CNN
F 2 "" H 3400 2800 50  0001 C CNN
F 3 "" H 3400 2800 50  0001 C CNN
	1    3400 2800
	1    0    0    -1  
$EndComp
$Comp
L INA199 U3
U 1 1 5B21A29D
P 4050 2650
F 0 "U3" H 3800 2900 50  0000 C CNN
F 1 "INA199" H 4200 2900 50  0000 C CNN
F 2 "TO_SOT_Packages_SMD:SOT-363_SC-70-6_Handsoldering" H 3950 2350 50  0001 C CNN
F 3 "" H 3950 2350 50  0001 C CNN
	1    4050 2650
	1    0    0    -1  
$EndComp
$Comp
L GNDA #PWR038
U 1 1 5B21A29E
P 4500 2850
F 0 "#PWR038" H 4500 2600 50  0001 C CNN
F 1 "GNDA" H 4500 2700 50  0000 C CNN
F 2 "" H 4500 2850 50  0001 C CNN
F 3 "" H 4500 2850 50  0001 C CNN
	1    4500 2850
	1    0    0    -1  
$EndComp
$Comp
L MCP6001U U4
U 1 1 5B21A29F
P 6050 2750
F 0 "U4" H 6200 2900 60  0000 C CNN
F 1 "MCP6001U" H 6300 2550 50  0000 C CNN
F 2 "TO_SOT_Packages_SMD:SOT-23-5_HandSoldering" H 6050 2750 60  0001 C CNN
F 3 "" H 6050 2750 60  0001 C CNN
	1    6050 2750
	1    0    0    -1  
$EndComp
Wire Wire Line
	6950 2750 6900 2750
Wire Wire Line
	6950 2600 6950 2800
Connection ~ 6950 2750
Wire Wire Line
	6950 2650 7000 2650
Connection ~ 6950 2650
Wire Wire Line
	7200 2650 7650 2650
Wire Wire Line
	6050 2450 6400 2450
Wire Wire Line
	4800 2650 4800 2850
Wire Wire Line
	4450 2650 4800 2650
Wire Wire Line
	4500 2750 4500 2850
Wire Wire Line
	4450 2750 4500 2750
Wire Wire Line
	3150 2650 3650 2650
Wire Wire Line
	3400 2750 3400 2800
Wire Wire Line
	3650 2750 3400 2750
Wire Wire Line
	4500 2550 4450 2550
Wire Wire Line
	3600 1900 3600 2550
Wire Wire Line
	3600 2550 3650 2550
Connection ~ 4900 2850
Wire Wire Line
	4900 2800 4900 2850
Connection ~ 5300 2850
Wire Wire Line
	5300 2850 5300 3500
Wire Wire Line
	5300 3500 6500 3500
Wire Wire Line
	6500 3500 6500 3350
Wire Wire Line
	5150 3250 5150 3000
Wire Wire Line
	5700 3250 5700 3200
Connection ~ 5700 2850
Wire Wire Line
	5700 2800 5700 2900
Wire Wire Line
	5650 2850 5750 2850
Connection ~ 5100 2850
Wire Wire Line
	6950 3150 6950 3100
Wire Wire Line
	6050 2500 6050 2450
Wire Wire Line
	6050 3000 6050 3250
Connection ~ 6500 2750
Connection ~ 6500 2200
Wire Wire Line
	6450 2750 6600 2750
Wire Wire Line
	6500 2150 6500 3150
Wire Wire Line
	6400 2200 6500 2200
Wire Wire Line
	6100 2200 5700 2200
Wire Wire Line
	5700 2650 5750 2650
Wire Wire Line
	4800 2850 5350 2850
Wire Wire Line
	4200 1950 7650 1950
Connection ~ 3600 1950
Connection ~ 4500 1950
Wire Wire Line
	4500 1900 4500 2550
Wire Wire Line
	3250 1950 3900 1950
Text HLabel 4750 3700 2    60   Input ~ 0
Vcc
Text HLabel 4750 4100 2    60   Input ~ 0
GND
$Comp
L C C7
U 1 1 5B21C017
P 3900 3900
F 0 "C7" H 3925 4000 50  0000 L CNN
F 1 "100n" H 3925 3800 50  0000 L CNN
F 2 "Capacitors_SMD:C_0603_HandSoldering" H 3938 3750 50  0001 C CNN
F 3 "" H 3900 3900 50  0001 C CNN
	1    3900 3900
	1    0    0    -1  
$EndComp
Wire Wire Line
	3300 4100 4750 4100
Wire Wire Line
	3900 3700 3900 3750
Wire Wire Line
	3050 3700 4400 3700
$Comp
L C C6
U 1 1 5B21C018
P 3550 3900
F 0 "C6" H 3575 4000 50  0000 L CNN
F 1 "22u" H 3575 3800 50  0000 L CNN
F 2 "Capacitors_SMD:C_0603_HandSoldering" H 3588 3750 50  0001 C CNN
F 3 "" H 3550 3900 50  0001 C CNN
	1    3550 3900
	1    0    0    -1  
$EndComp
$Comp
L L L2
U 1 1 5B21C019
P 4550 3700
F 0 "L2" H 4450 3750 50  0000 C CNN
F 1 "L" H 4650 3750 50  0000 C CNN
F 2 "Inductors_SMD:L_0805_HandSoldering" V 4550 3700 50  0001 C CNN
F 3 "" V 4550 3700 50  0001 C CNN
F 4 "Type" H 4550 3650 50  0000 C CNN "Type"
	1    4550 3700
	1    0    0    -1  
$EndComp
Wire Wire Line
	4700 3700 4750 3700
Connection ~ 3900 4100
Wire Wire Line
	3550 4100 3550 4050
Wire Wire Line
	3550 3600 3550 3750
Connection ~ 3900 3700
Wire Wire Line
	3900 4050 3900 4100
Connection ~ 3550 4100
Connection ~ 3550 3700
Text Label 5550 2600 2    60   ~ 0
VCC_MCP
Text Label 3150 2650 0    60   ~ 0
VCC_INA
Wire Wire Line
	5150 2700 5150 2600
Wire Wire Line
	5150 2600 5550 2600
$Comp
L GNDA #PWR039
U 1 1 5B21E330
P 3300 4150
F 0 "#PWR039" H 3300 3900 50  0001 C CNN
F 1 "GNDA" H 3300 4000 50  0000 C CNN
F 2 "" H 3300 4150 50  0001 C CNN
F 3 "" H 3300 4150 50  0001 C CNN
	1    3300 4150
	1    0    0    -1  
$EndComp
Wire Wire Line
	3300 4100 3300 4150
Text HLabel 7650 2650 2    60   Input ~ 0
Current
Text HLabel 3250 1950 0    60   Input ~ 0
Vin
$Comp
L C C8
U 1 1 5B21EFBE
P 4250 3900
F 0 "C8" H 4275 4000 50  0000 L CNN
F 1 "100n" H 4275 3800 50  0000 L CNN
F 2 "Capacitors_SMD:C_0603_HandSoldering" H 4288 3750 50  0001 C CNN
F 3 "" H 4250 3900 50  0001 C CNN
	1    4250 3900
	1    0    0    -1  
$EndComp
Wire Wire Line
	4250 3750 4250 3700
Connection ~ 4250 3700
Wire Wire Line
	4250 4050 4250 4100
Connection ~ 4250 4100
Text HLabel 7650 1950 2    60   Input ~ 0
Vout
$Comp
L Testpoint P14
U 1 1 5B239FA4
P 3600 1900
F 0 "P14" H 3600 1980 50  0000 C CNN
F 1 "Testpoint" H 3790 1910 50  0001 C CNN
F 2 "FootprintLib:Testpoint_0.4mm" H 3600 1900 100 0001 C CNN
F 3 "" H 3600 1900 100 0001 C CNN
	1    3600 1900
	1    0    0    -1  
$EndComp
Wire Wire Line
	7350 2600 7350 2650
Connection ~ 7350 2650
$Comp
L Testpoint P15
U 1 1 5B23AE1C
P 4500 1900
F 0 "P15" H 4500 1980 50  0000 C CNN
F 1 "Testpoint" H 4690 1910 50  0001 C CNN
F 2 "FootprintLib:Testpoint_0.4mm" H 4500 1900 100 0001 C CNN
F 3 "" H 4500 1900 100 0001 C CNN
	1    4500 1900
	1    0    0    -1  
$EndComp
Text Notes 1000 1100 0    100  ~ 0
SchematicLib is required for this schematic. \nPlease write to siecinski.kamil@gmail.com if you need access to this library. \nIt is totally free.
Text Label 6400 2450 2    60   ~ 0
VCC_MCP
Wire Wire Line
	3550 3600 3050 3600
Text Label 3050 3600 0    60   ~ 0
VCC_INA
Text Label 3050 3700 0    60   ~ 0
VCC_MCP
Wire Wire Line
	5700 2200 5700 2650
$EndSCHEMATC
