EESchema Schematic File Version 2
LIBS:SchematicLib
LIBS:power
LIBS:device
LIBS:switches
LIBS:relays
LIBS:motors
LIBS:transistors
LIBS:conn
LIBS:linear
LIBS:regul
LIBS:74xx
LIBS:cmos4000
LIBS:adc-dac
LIBS:memory
LIBS:xilinx
LIBS:microcontrollers
LIBS:dsp
LIBS:microchip
LIBS:analog_switches
LIBS:motorola
LIBS:texas
LIBS:intel
LIBS:audio
LIBS:interface
LIBS:digital-audio
LIBS:philips
LIBS:display
LIBS:cypress
LIBS:siliconi
LIBS:opto
LIBS:atmel
LIBS:contrib
LIBS:valves
LIBS:MainControlUnit-cache
EELAYER 25 0
EELAYER END
$Descr A3 16535 11693
encoding utf-8
Sheet 1 11
Title ""
Date ""
Rev ""
Comp ""
Comment1 ""
Comment2 ""
Comment3 ""
Comment4 ""
$EndDescr
$Sheet
S 1950 1400 1000 400 
U 5B2025CA
F0 "ReversPolarityProtection" 39
F1 "ReversPolarityProtection.sch" 39
F2 "BAT" I L 1950 1500 60 
F3 "Vzas" I R 2950 1500 60 
F4 "BATGND" I L 1950 1700 60 
F5 "GND" I R 2950 1700 60 
$EndSheet
$Comp
L Conn_01x03 J1
U 1 1 5B20992B
P 900 1500
F 0 "J1" H 900 1700 50  0000 C CNN
F 1 "Conn_01x03" H 900 1300 50  0000 C CNN
F 2 "Connectors_JST:JST_EH_B03B-EH-A_03x2.50mm_Straight" H 900 1500 50  0001 C CNN
F 3 "" H 900 1500 50  0001 C CNN
	1    900  1500
	-1   0    0    -1  
$EndComp
$Sheet
S 1950 2200 1000 500 
U 5B20BA8A
F0 "BaterryVoltageMeasurement" 39
F1 "BaterryVoltageMeasurement.sch" 39
F2 "VoltageADC" I R 2950 2450 60 
F3 "Vbat" I L 1950 2450 60 
F4 "Vcc" I R 2950 2300 60 
F5 "GND" I R 2950 2600 60 
$EndSheet
$Sheet
S 3700 1400 750  800 
U 5B215290
F0 "CurrentMeasurement" 39
F1 "CurrentMeasurement.sch" 39
F2 "Vcc" I R 4450 1800 60 
F3 "GND" I R 4450 2100 60 
F4 "Current" I R 4450 1950 60 
F5 "Vin" I L 3700 1500 60 
F6 "Vout" I R 4450 1500 60 
$EndSheet
$Sheet
S 5350 1400 800  400 
U 5B224BB8
F0 "VoltageRegulator_3V3" 39
F1 "VoltageRegulator_3V3.sch" 39
F2 "Vzas" I L 5350 1500 60 
F3 "3V3" I R 6150 1500 60 
F4 "GND" I R 6150 1700 60 
$EndSheet
$Comp
L GND #PWR01
U 1 1 5B22E243
P 3100 1750
F 0 "#PWR01" H 3100 1500 50  0001 C CNN
F 1 "GND" H 3100 1600 50  0000 C CNN
F 2 "" H 3100 1750 50  0001 C CNN
F 3 "" H 3100 1750 50  0001 C CNN
	1    3100 1750
	1    0    0    -1  
$EndComp
$Comp
L GND #PWR02
U 1 1 5B22E693
P 3100 2700
F 0 "#PWR02" H 3100 2450 50  0001 C CNN
F 1 "GND" H 3100 2550 50  0000 C CNN
F 2 "" H 3100 2700 50  0001 C CNN
F 3 "" H 3100 2700 50  0001 C CNN
	1    3100 2700
	1    0    0    -1  
$EndComp
$Comp
L GND #PWR03
U 1 1 5B22F1D7
P 4600 2150
F 0 "#PWR03" H 4600 1900 50  0001 C CNN
F 1 "GND" H 4600 2000 50  0000 C CNN
F 2 "" H 4600 2150 50  0001 C CNN
F 3 "" H 4600 2150 50  0001 C CNN
	1    4600 2150
	1    0    0    -1  
$EndComp
$Comp
L GND #PWR04
U 1 1 5B230212
P 6350 1750
F 0 "#PWR04" H 6350 1500 50  0001 C CNN
F 1 "GND" H 6350 1600 50  0000 C CNN
F 2 "" H 6350 1750 50  0001 C CNN
F 3 "" H 6350 1750 50  0001 C CNN
	1    6350 1750
	1    0    0    -1  
$EndComp
$Comp
L 3V3 #PWR05
U 1 1 5B2331DD
P 6350 1450
F 0 "#PWR05" H 6350 1300 50  0001 C CNN
F 1 "3V3" H 6350 1600 50  0000 C CNN
F 2 "" H 6350 1450 50  0001 C CNN
F 3 "" H 6350 1450 50  0001 C CNN
	1    6350 1450
	1    0    0    -1  
$EndComp
$Comp
L 3V3 #PWR06
U 1 1 5B2337D1
P 4600 1750
F 0 "#PWR06" H 4600 1600 50  0001 C CNN
F 1 "3V3" H 4600 1900 50  0000 C CNN
F 2 "" H 4600 1750 50  0001 C CNN
F 3 "" H 4600 1750 50  0001 C CNN
	1    4600 1750
	1    0    0    -1  
$EndComp
$Comp
L 3V3 #PWR07
U 1 1 5B233FFB
P 3100 2250
F 0 "#PWR07" H 3100 2100 50  0001 C CNN
F 1 "3V3" H 3100 2400 50  0000 C CNN
F 2 "" H 3100 2250 50  0001 C CNN
F 3 "" H 3100 2250 50  0001 C CNN
	1    3100 2250
	1    0    0    -1  
$EndComp
Text GLabel 4600 1950 2    50   Input ~ 0
Current
Text GLabel 3100 2450 2    50   Input ~ 0
BatteryVoltage
$Sheet
S 2150 4150 950  700 
U 5B23E220
F0 "FTDI_FT230" 39
F1 "FTDI_FT230.sch" 39
F2 "VBUS" I L 2150 4250 60 
F3 "DP" I L 2150 4450 60 
F4 "DM" I L 2150 4550 60 
F5 "USBGND" I L 2150 4750 60 
F6 "TXD" I R 3100 4550 60 
F7 "RXD" I R 3100 4450 60 
F8 "GND" I R 3100 4750 60 
F9 "VZAS" I R 3100 4250 60 
$EndSheet
$Comp
L JUMPER JP1
U 1 1 5B23FB20
P 1600 4800
F 0 "JP1" H 1600 4850 50  0000 C CNN
F 1 "JUMPER" H 1650 4700 50  0001 C CNN
F 2 "FootprintLib:SOLDER_JUMPER" H 1600 4800 50  0001 C CNN
F 3 "" H 1600 4800 50  0001 C CNN
	1    1600 4800
	0    -1   1    0   
$EndComp
$Sheet
S 3650 4150 1150 700 
U 5B24A50B
F0 "FTDI_UART_Isolator" 50
F1 "FTDI_UART_Isolator.sch" 50
F2 "Vcc1" I L 3650 4250 60 
F3 "TXD_IN" I L 3650 4550 60 
F4 "GND1" I L 3650 4750 60 
F5 "TXD_OUT" I R 4800 4550 60 
F6 "Vcc2" I R 4800 4250 60 
F7 "GND2" I R 4800 4750 60 
F8 "RXD_IN" I R 4800 4450 60 
F9 "RXD_OUT" I L 3650 4450 60 
$EndSheet
$Comp
L 3V3 #PWR08
U 1 1 5B250468
P 4950 4150
F 0 "#PWR08" H 4950 4000 50  0001 C CNN
F 1 "3V3" H 4950 4300 50  0000 C CNN
F 2 "" H 4950 4150 50  0001 C CNN
F 3 "" H 4950 4150 50  0001 C CNN
	1    4950 4150
	1    0    0    -1  
$EndComp
$Comp
L GND #PWR09
U 1 1 5B250C26
P 4950 4850
F 0 "#PWR09" H 4950 4600 50  0001 C CNN
F 1 "GND" H 4950 4700 50  0000 C CNN
F 2 "" H 4950 4850 50  0001 C CNN
F 3 "" H 4950 4850 50  0001 C CNN
	1    4950 4850
	1    0    0    -1  
$EndComp
Text GLabel 5000 4550 2    50   Input ~ 0
Config_Rx
Text GLabel 5000 4450 2    50   Input ~ 0
Config_Tx
$Sheet
S 14750 1400 800  1200
U 5B269F5B
F0 "SdCard_SPI" 50
F1 "SdCard_SPI.sch" 50
F2 "Vcc" I L 14750 1500 60 
F3 "MISO" I L 14750 1700 60 
F4 "MOSI" I L 14750 1850 60 
F5 "SCK" I L 14750 2000 60 
F6 "GND" I L 14750 2500 60 
F7 "~CS" I L 14750 2150 60 
F8 "~DET" I L 14750 2300 60 
$EndSheet
$Comp
L GND #PWR010
U 1 1 5B28187C
P 14600 2600
F 0 "#PWR010" H 14600 2350 50  0001 C CNN
F 1 "GND" H 14600 2450 50  0000 C CNN
F 2 "" H 14600 2600 50  0001 C CNN
F 3 "" H 14600 2600 50  0001 C CNN
	1    14600 2600
	1    0    0    -1  
$EndComp
$Comp
L 3V3 #PWR011
U 1 1 5B281884
P 14600 1400
F 0 "#PWR011" H 14600 1250 50  0001 C CNN
F 1 "3V3" H 14600 1550 50  0000 C CNN
F 2 "" H 14600 1400 50  0001 C CNN
F 3 "" H 14600 1400 50  0001 C CNN
	1    14600 1400
	1    0    0    -1  
$EndComp
Text GLabel 14350 1700 0    60   Input ~ 0
SD_MISO
Text GLabel 14350 1850 0    60   Input ~ 0
SD_MOSI
Text GLabel 14350 2000 0    60   Input ~ 0
SD_SCK
Text GLabel 14350 2150 0    60   Input ~ 0
~SD_CS
Text GLabel 14350 2300 0    60   Input ~ 0
~SD_DETECT
$Sheet
S 14700 3800 800  900 
U 5B29D56B
F0 "Rtc_DS1338" 50
F1 "Rtc_DS1338.sch" 50
F2 "VCC" I L 14700 3900 60 
F3 "GND" I L 14700 4600 60 
F4 "SWO" I L 14700 4100 60 
F5 "SCL" I L 14700 4250 60 
F6 "SDA" I L 14700 4400 60 
$EndSheet
$Comp
L 3V3 #PWR012
U 1 1 5B2A26FC
P 14550 3800
F 0 "#PWR012" H 14550 3650 50  0001 C CNN
F 1 "3V3" H 14550 3950 50  0000 C CNN
F 2 "" H 14550 3800 50  0001 C CNN
F 3 "" H 14550 3800 50  0001 C CNN
	1    14550 3800
	1    0    0    -1  
$EndComp
$Comp
L GND #PWR013
U 1 1 5B2A2812
P 14550 4700
F 0 "#PWR013" H 14550 4450 50  0001 C CNN
F 1 "GND" H 14550 4550 50  0000 C CNN
F 2 "" H 14550 4700 50  0001 C CNN
F 3 "" H 14550 4700 50  0001 C CNN
	1    14550 4700
	1    0    0    -1  
$EndComp
Text GLabel 14500 4100 0    50   Input ~ 0
RTC_SWO
Text GLabel 14500 4250 0    50   Input ~ 0
RTC_SCL
Text GLabel 14500 4400 0    50   Input ~ 0
RTC_SDA
Text Notes 3150 950  0    100  ~ 0
Power source
Text Notes 2500 3350 0    100  ~ 0
USB Configurator
Text Notes 14400 850  0    100  ~ 0
uSD Card
Text Notes 14650 3250 0    100  ~ 0
RTC
$Sheet
S 13200 8450 850  850 
U 5B2B69E3
F0 "Payload_I2C_Isolator" 50
F1 "Payload_I2C_Isolator.sch" 50
F2 "VCC1" I L 13200 8550 60 
F3 "GND1" I L 13200 9200 60 
F4 "SDA" I L 13200 8800 60 
F5 "SCL" I L 13200 8950 60 
F6 "VCC2" I R 14050 8550 60 
F7 "GND2" I R 14050 9200 60 
F8 "ISO_SDA" I R 14050 8800 60 
F9 "ISO_SCL" I R 14050 8950 60 
$EndSheet
Text Notes 13850 8050 0    100  ~ 0
Payload Data Access\n
$Comp
L 3V3 #PWR014
U 1 1 5B2C1D77
P 13050 8450
F 0 "#PWR014" H 13050 8300 50  0001 C CNN
F 1 "3V3" H 13050 8600 50  0000 C CNN
F 2 "" H 13050 8450 50  0001 C CNN
F 3 "" H 13050 8450 50  0001 C CNN
	1    13050 8450
	1    0    0    -1  
$EndComp
$Comp
L GND #PWR015
U 1 1 5B2C1EB7
P 13050 9300
F 0 "#PWR015" H 13050 9050 50  0001 C CNN
F 1 "GND" H 13050 9150 50  0000 C CNN
F 2 "" H 13050 9300 50  0001 C CNN
F 3 "" H 13050 9300 50  0001 C CNN
	1    13050 9300
	1    0    0    -1  
$EndComp
Text GLabel 13100 8800 0    50   Input ~ 0
PAYLOAD_SDA
Text GLabel 13100 8950 0    50   Input ~ 0
PAYLOAD_SCL
$Comp
L Con_1x6 J4
U 1 1 5B2C4F39
P 15450 8850
F 0 "J4" H 15500 9100 50  0000 C CNN
F 1 "Con_1x6" H 15475 8400 50  0000 C CNN
F 2 "FootprintLib:JST-B6B-ZR" H 15500 8900 50  0001 C CNN
F 3 "" H 15500 8900 50  0001 C CNN
	1    15450 8850
	1    0    0    -1  
$EndComp
Text GLabel 15150 8800 0    50   Input ~ 0
PAYLOAD_SCL
Text GLabel 15150 8700 0    50   Input ~ 0
PAYLOAD_SDA
$Comp
L Con_1x4 J3
U 1 1 5B2BC7A8
P 1250 6150
F 0 "J3" H 1300 6400 50  0000 C CNN
F 1 "Con_1x4" H 1300 5900 50  0000 C CNN
F 2 "FootprintLib:JST-B4B-ZR" H 1300 6200 50  0001 C CNN
F 3 "" H 1300 6200 50  0001 C CNN
	1    1250 6150
	-1   0    0    1   
$EndComp
$Comp
L GND #PWR016
U 1 1 5B2BDDF5
P 1550 6400
F 0 "#PWR016" H 1550 6150 50  0001 C CNN
F 1 "GND" H 1550 6250 50  0000 C CNN
F 2 "" H 1550 6400 50  0001 C CNN
F 3 "" H 1550 6400 50  0001 C CNN
	1    1550 6400
	1    0    0    -1  
$EndComp
$Comp
L 3V3 #PWR017
U 1 1 5B2BF1BF
P 1550 5900
F 0 "#PWR017" H 1550 5750 50  0001 C CNN
F 1 "3V3" H 1550 6050 50  0000 C CNN
F 2 "" H 1550 5900 50  0001 C CNN
F 3 "" H 1550 5900 50  0001 C CNN
	1    1550 5900
	1    0    0    -1  
$EndComp
Text GLabel 1600 6100 2    50   Input ~ 0
PCU_RX
Text GLabel 1600 6200 2    50   Input ~ 0
PCU_TX
Text Notes 800  5600 0    100  ~ 0
PCU (Power Control Unit)\nCommunication 
Wire Wire Line
	1100 1400 1500 1400
Wire Wire Line
	1500 1400 1500 2450
Wire Wire Line
	1500 2450 1950 2450
Wire Wire Line
	1100 1500 1950 1500
Wire Wire Line
	1100 1600 1850 1600
Wire Wire Line
	1950 1700 1850 1700
Wire Wire Line
	1850 1700 1850 1600
Wire Wire Line
	2950 1500 3700 1500
Wire Wire Line
	4450 1500 5350 1500
Wire Wire Line
	3100 1750 3100 1700
Wire Wire Line
	3100 1700 2950 1700
Wire Wire Line
	3100 2700 3100 2600
Wire Wire Line
	3100 2600 2950 2600
Wire Wire Line
	4600 2150 4600 2100
Wire Wire Line
	4600 2100 4450 2100
Wire Wire Line
	6350 1700 6350 1750
Wire Wire Line
	6150 1700 6350 1700
Wire Wire Line
	6150 1500 6350 1500
Wire Wire Line
	6350 1500 6350 1450
Wire Wire Line
	4450 1800 4600 1800
Wire Wire Line
	4600 1800 4600 1750
Wire Wire Line
	2950 2300 3100 2300
Wire Wire Line
	3100 2300 3100 2250
Wire Wire Line
	4600 1950 4450 1950
Wire Wire Line
	2950 2450 3100 2450
Wire Wire Line
	1600 4700 1600 4650
Wire Wire Line
	1600 4650 1500 4650
Wire Wire Line
	1600 4950 1600 4900
Wire Wire Line
	1100 4950 1800 4950
Wire Wire Line
	1200 4950 1200 4850
Wire Wire Line
	1100 4950 1100 4850
Connection ~ 1200 4950
Wire Wire Line
	1800 4950 1800 4750
Wire Wire Line
	1800 4750 2150 4750
Connection ~ 1600 4950
Wire Wire Line
	2150 4550 1500 4550
Wire Wire Line
	1500 4450 2150 4450
Wire Wire Line
	1500 4250 2150 4250
Wire Wire Line
	3100 4750 3650 4750
Wire Wire Line
	3650 4550 3100 4550
Wire Wire Line
	3100 4450 3650 4450
Wire Wire Line
	3100 4250 3650 4250
Wire Wire Line
	4800 4250 4950 4250
Wire Wire Line
	4950 4250 4950 4150
Wire Wire Line
	4950 4850 4950 4750
Wire Wire Line
	4950 4750 4800 4750
Wire Wire Line
	4800 4550 5000 4550
Wire Wire Line
	4800 4450 5000 4450
Wire Wire Line
	14600 2600 14600 2500
Wire Wire Line
	14600 2500 14750 2500
Wire Wire Line
	14750 1500 14600 1500
Wire Wire Line
	14600 1500 14600 1400
Wire Wire Line
	14750 1700 14350 1700
Wire Wire Line
	14750 1850 14350 1850
Wire Wire Line
	14750 2000 14350 2000
Wire Wire Line
	14750 2150 14350 2150
Wire Wire Line
	14750 2300 14350 2300
Wire Wire Line
	14550 4700 14550 4600
Wire Wire Line
	14550 4600 14700 4600
Wire Wire Line
	14700 3900 14550 3900
Wire Wire Line
	14550 3900 14550 3800
Wire Wire Line
	14700 4100 14500 4100
Wire Wire Line
	14700 4250 14500 4250
Wire Wire Line
	14700 4400 14500 4400
Wire Notes Line
	650  700  6900 700 
Wire Notes Line
	6900 700  6900 3000
Wire Notes Line
	6900 3000 650  3000
Wire Notes Line
	650  3000 650  700 
Wire Notes Line
	650  3100 5650 3100
Wire Notes Line
	5650 3100 5650 5150
Wire Notes Line
	5650 5150 650  5150
Wire Notes Line
	650  5150 650  3100
Wire Notes Line
	13650 650  15900 650 
Wire Notes Line
	15900 650  15900 2850
Wire Notes Line
	15900 2850 13650 2850
Wire Notes Line
	13650 2850 13650 650 
Wire Notes Line
	13650 3050 15900 3050
Wire Notes Line
	15900 3050 15900 5100
Wire Notes Line
	15900 5100 13650 5100
Wire Notes Line
	13650 5100 13650 3050
Wire Notes Line
	12450 7850 15750 7850
Wire Notes Line
	15750 7850 15750 9650
Wire Notes Line
	15750 9650 12450 9650
Wire Notes Line
	12450 9650 12450 7850
Wire Wire Line
	13200 8550 13050 8550
Wire Wire Line
	13050 8550 13050 8450
Wire Wire Line
	13050 9300 13050 9200
Wire Wire Line
	13050 9200 13200 9200
Wire Wire Line
	13100 8800 13200 8800
Wire Wire Line
	13100 8950 13200 8950
Wire Wire Line
	14050 9200 15300 9200
Wire Wire Line
	14050 8950 14150 8950
Wire Wire Line
	14150 8950 14150 9100
Wire Wire Line
	14150 9100 15300 9100
Wire Wire Line
	14050 8800 14250 8800
Wire Wire Line
	14250 8800 14250 9000
Wire Wire Line
	14250 9000 15300 9000
Wire Wire Line
	15300 8900 14350 8900
Wire Wire Line
	14350 8900 14350 8550
Wire Wire Line
	14350 8550 14050 8550
Wire Wire Line
	15150 8800 15300 8800
Wire Wire Line
	15150 8700 15300 8700
Wire Wire Line
	1550 6400 1550 6300
Wire Wire Line
	1550 6300 1400 6300
Wire Wire Line
	1400 6000 1550 6000
Wire Wire Line
	1550 6000 1550 5900
Wire Wire Line
	1400 6100 1600 6100
Wire Wire Line
	1400 6200 1600 6200
Wire Notes Line
	650  5250 2850 5250
Wire Notes Line
	2850 5250 2850 6750
Wire Notes Line
	2850 6750 650  6750
Wire Notes Line
	650  6750 650  5250
$Comp
L USB_OTG J2
U 1 1 5B23EA3F
P 1200 4450
F 0 "J2" H 1000 4900 50  0000 L CNN
F 1 "USB_OTG" H 1000 4800 50  0000 L CNN
F 2 "FootprintLib:USB_mini_B_SMD" H 1350 4400 50  0001 C CNN
F 3 "" H 1350 4400 50  0001 C CNN
	1    1200 4450
	1    0    0    -1  
$EndComp
$Sheet
S 13200 6500 1050 850 
U 5B30738C
F0 "Payload_UART_Isolator" 50
F1 "Payload_UART_Isolator.sch" 50
F2 "VCC1" I L 13200 6600 60 
F3 "GND1" I L 13200 7250 60 
F4 "VCC2" I R 14250 6600 60 
F5 "GND2" I R 14250 7250 60 
F6 "TXD_IN" I L 13200 7000 60 
F7 "RXD_IN" I R 14250 6850 60 
F8 "TXD_OUT" I R 14250 7000 60 
F9 "RXD_OUT" I L 13200 6850 60 
$EndSheet
Text Notes 13850 6100 0    100  ~ 0
Payload Data Access\n
$Comp
L 3V3 #PWR018
U 1 1 5B307393
P 13050 6500
F 0 "#PWR018" H 13050 6350 50  0001 C CNN
F 1 "3V3" H 13050 6650 50  0000 C CNN
F 2 "" H 13050 6500 50  0001 C CNN
F 3 "" H 13050 6500 50  0001 C CNN
	1    13050 6500
	1    0    0    -1  
$EndComp
$Comp
L GND #PWR019
U 1 1 5B307399
P 13050 7350
F 0 "#PWR019" H 13050 7100 50  0001 C CNN
F 1 "GND" H 13050 7200 50  0000 C CNN
F 2 "" H 13050 7350 50  0001 C CNN
F 3 "" H 13050 7350 50  0001 C CNN
	1    13050 7350
	1    0    0    -1  
$EndComp
Text GLabel 13100 7000 0    50   Input ~ 0
PAYLOAD_TXD
Text GLabel 13100 6850 0    50   Input ~ 0
PAYLOAD_RXD
$Comp
L Con_1x6 J6
U 1 1 5B3073A1
P 15450 6750
F 0 "J6" H 15500 7000 50  0000 C CNN
F 1 "Con_1x6" H 15475 6300 50  0000 C CNN
F 2 "FootprintLib:JST-B6B-ZR" H 15500 6800 50  0001 C CNN
F 3 "" H 15500 6800 50  0001 C CNN
	1    15450 6750
	1    0    0    -1  
$EndComp
Wire Notes Line
	12450 5900 15750 5900
Wire Notes Line
	15750 5900 15750 7700
Wire Notes Line
	15750 7700 12450 7700
Wire Notes Line
	12450 7700 12450 5900
Wire Wire Line
	13050 6600 13050 6500
Wire Wire Line
	13050 7350 13050 7250
Wire Wire Line
	14250 6600 15300 6600
Wire Wire Line
	15150 7100 15300 7100
Wire Wire Line
	15150 7000 15300 7000
Wire Wire Line
	13200 6850 13100 6850
Wire Wire Line
	13200 7000 13100 7000
Wire Wire Line
	13050 7250 13200 7250
Wire Wire Line
	13200 6600 13050 6600
Text GLabel 15150 7000 0    50   Input ~ 0
PAYLOAD_RXD
Text GLabel 15150 7100 0    50   Input ~ 0
PAYLOAD_TXD
Wire Wire Line
	14250 6850 14350 6850
Wire Wire Line
	14350 6850 14350 6700
Wire Wire Line
	14350 6700 15300 6700
Wire Wire Line
	14250 7000 14450 7000
Wire Wire Line
	14450 7000 14450 6800
Wire Wire Line
	14450 6800 15300 6800
Wire Wire Line
	14250 7250 14550 7250
Wire Wire Line
	14550 7250 14550 6900
Wire Wire Line
	14550 6900 15300 6900
$EndSCHEMATC
