(export (version D)
  (design
    (source C:/WorkSpace/Projects/Private/StratosphericBalloon/MainControlUnit/Hardware/MainControlUnit.sch)
    (date "26/06/2018 22:21:27")
    (tool "Eeschema 4.0.7")
    (sheet (number 1) (name /) (tstamps /)
      (title_block
        (title)
        (company)
        (rev)
        (date)
        (source MainControlUnit.sch)
        (comment (number 1) (value ""))
        (comment (number 2) (value ""))
        (comment (number 3) (value ""))
        (comment (number 4) (value ""))))
    (sheet (number 2) (name /ReversPolarityProtection/) (tstamps /5B2025CA/)
      (title_block
        (title)
        (company)
        (rev)
        (date)
        (source ReversPolarityProtection.sch)
        (comment (number 1) (value ""))
        (comment (number 2) (value ""))
        (comment (number 3) (value ""))
        (comment (number 4) (value ""))))
    (sheet (number 3) (name /BaterryVoltageMeasurement/) (tstamps /5B20BA8A/)
      (title_block
        (title)
        (company)
        (rev)
        (date)
        (source BaterryVoltageMeasurement.sch)
        (comment (number 1) (value ""))
        (comment (number 2) (value ""))
        (comment (number 3) (value ""))
        (comment (number 4) (value ""))))
    (sheet (number 4) (name /CurrentMeasurement/) (tstamps /5B215290/)
      (title_block
        (title)
        (company)
        (rev)
        (date)
        (source CurrentMeasurement.sch)
        (comment (number 1) (value ""))
        (comment (number 2) (value ""))
        (comment (number 3) (value ""))
        (comment (number 4) (value ""))))
    (sheet (number 5) (name /VoltageRegulator_3V3/) (tstamps /5B224BB8/)
      (title_block
        (title)
        (company)
        (rev)
        (date)
        (source VoltageRegulator_3V3.sch)
        (comment (number 1) (value ""))
        (comment (number 2) (value ""))
        (comment (number 3) (value ""))
        (comment (number 4) (value ""))))
    (sheet (number 6) (name /FTDI_FT230/) (tstamps /5B23E220/)
      (title_block
        (title)
        (company)
        (rev)
        (date)
        (source FTDI_FT230.sch)
        (comment (number 1) (value ""))
        (comment (number 2) (value ""))
        (comment (number 3) (value ""))
        (comment (number 4) (value ""))))
    (sheet (number 7) (name /FTDI_UART_Isolator/) (tstamps /5B24A50B/)
      (title_block
        (title)
        (company)
        (rev)
        (date)
        (source FTDI_UART_Isolator.sch)
        (comment (number 1) (value ""))
        (comment (number 2) (value ""))
        (comment (number 3) (value ""))
        (comment (number 4) (value ""))))
    (sheet (number 8) (name /SdCard_SPI/) (tstamps /5B269F5B/)
      (title_block
        (title)
        (company)
        (rev)
        (date)
        (source SdCard_SPI.sch)
        (comment (number 1) (value ""))
        (comment (number 2) (value ""))
        (comment (number 3) (value ""))
        (comment (number 4) (value ""))))
    (sheet (number 9) (name /Rtc_DS1338/) (tstamps /5B29D56B/)
      (title_block
        (title)
        (company)
        (rev)
        (date)
        (source Rtc_DS1338.sch)
        (comment (number 1) (value ""))
        (comment (number 2) (value ""))
        (comment (number 3) (value ""))
        (comment (number 4) (value ""))))
    (sheet (number 10) (name /Payload_I2C_Isolator/) (tstamps /5B2B69E3/)
      (title_block
        (title)
        (company)
        (rev)
        (date)
        (source Payload_I2C_Isolator.sch)
        (comment (number 1) (value ""))
        (comment (number 2) (value ""))
        (comment (number 3) (value ""))
        (comment (number 4) (value ""))))
    (sheet (number 11) (name /Payload_UART_Isolator/) (tstamps /5B30738C/)
      (title_block
        (title)
        (company)
        (rev)
        (date)
        (source Payload_UART_Isolator.sch)
        (comment (number 1) (value ""))
        (comment (number 2) (value ""))
        (comment (number 3) (value ""))
        (comment (number 4) (value "")))))
  (components
    (comp (ref J1)
      (value Conn_01x03)
      (footprint Connectors_JST:JST_EH_B03B-EH-A_03x2.50mm_Straight)
      (libsource (lib conn) (part Conn_01x03))
      (sheetpath (names /) (tstamps /))
      (tstamp 5B20992B))
    (comp (ref JP1)
      (value JUMPER)
      (footprint FootprintLib:SOLDER_JUMPER)
      (libsource (lib SchematicLib) (part JUMPER))
      (sheetpath (names /) (tstamps /))
      (tstamp 5B23FB20))
    (comp (ref J4)
      (value Con_1x6)
      (footprint FootprintLib:JST-B6B-ZR)
      (libsource (lib SchematicLib) (part Con_1x6))
      (sheetpath (names /) (tstamps /))
      (tstamp 5B2C4F39))
    (comp (ref J3)
      (value Con_1x4)
      (footprint FootprintLib:JST-B4B-ZR)
      (libsource (lib SchematicLib) (part Con_1x4))
      (sheetpath (names /) (tstamps /))
      (tstamp 5B2BC7A8))
    (comp (ref J2)
      (value USB_OTG)
      (footprint FootprintLib:USB_mini_B_SMD)
      (libsource (lib conn) (part USB_OTG))
      (sheetpath (names /) (tstamps /))
      (tstamp 5B23EA3F))
    (comp (ref J6)
      (value Con_1x6)
      (footprint FootprintLib:JST-B6B-ZR)
      (libsource (lib SchematicLib) (part Con_1x6))
      (sheetpath (names /) (tstamps /))
      (tstamp 5B3073A1))
    (comp (ref P1)
      (value Testpoint)
      (footprint FootprintLib:Testpoint_0.4mm)
      (libsource (lib SchematicLib) (part Testpoint))
      (sheetpath (names /ReversPolarityProtection/) (tstamps /5B2025CA/))
      (tstamp 5B20352B))
    (comp (ref U1)
      (value AO6403)
      (footprint TO_SOT_Packages_SMD:SOT-23-6_Handsoldering)
      (libsource (lib SchematicLib) (part AO6403))
      (sheetpath (names /ReversPolarityProtection/) (tstamps /5B2025CA/))
      (tstamp 5B20352C))
    (comp (ref DZ1)
      (value BZT52C15)
      (footprint Diodes_SMD:D_SOD-123)
      (fields
        (field (name Voltage) 15V))
      (libsource (lib SchematicLib) (part Zener))
      (sheetpath (names /ReversPolarityProtection/) (tstamps /5B2025CA/))
      (tstamp 5B20352D))
    (comp (ref R3)
      (value 10K)
      (footprint Resistors_SMD:R_0603_HandSoldering)
      (libsource (lib SchematicLib) (part R))
      (sheetpath (names /ReversPolarityProtection/) (tstamps /5B2025CA/))
      (tstamp 5B20352E))
    (comp (ref F1)
      (value 5A)
      (footprint Fuse_Holders_and_Fuses:Fuse_SMD1206_Wave)
      (fields
        (field (name Type) C1F-5))
      (libsource (lib SchematicLib) (part F))
      (sheetpath (names /ReversPolarityProtection/) (tstamps /5B2025CA/))
      (tstamp 5B20352F))
    (comp (ref P6)
      (value Testpoint)
      (footprint FootprintLib:Testpoint_0.4mm)
      (libsource (lib SchematicLib) (part Testpoint))
      (sheetpath (names /ReversPolarityProtection/) (tstamps /5B2025CA/))
      (tstamp 5B203530))
    (comp (ref P5)
      (value Testpoint)
      (footprint FootprintLib:Testpoint_0.4mm)
      (libsource (lib SchematicLib) (part Testpoint))
      (sheetpath (names /ReversPolarityProtection/) (tstamps /5B2025CA/))
      (tstamp 5B203531))
    (comp (ref P7)
      (value Testpoint)
      (footprint FootprintLib:Testpoint_0.4mm)
      (libsource (lib SchematicLib) (part Testpoint))
      (sheetpath (names /ReversPolarityProtection/) (tstamps /5B2025CA/))
      (tstamp 5B203532))
    (comp (ref R1)
      (value 470)
      (footprint Resistors_SMD:R_0603_HandSoldering)
      (libsource (lib SchematicLib) (part R))
      (sheetpath (names /ReversPolarityProtection/) (tstamps /5B2025CA/))
      (tstamp 5B203533))
    (comp (ref R4)
      (value 470)
      (footprint Resistors_SMD:R_0603_HandSoldering)
      (libsource (lib SchematicLib) (part R))
      (sheetpath (names /ReversPolarityProtection/) (tstamps /5B2025CA/))
      (tstamp 5B203534))
    (comp (ref D3)
      (value White)
      (footprint LEDs:LED_0603_HandSoldering)
      (libsource (lib SchematicLib) (part LED))
      (sheetpath (names /ReversPolarityProtection/) (tstamps /5B2025CA/))
      (tstamp 5B203535))
    (comp (ref D2)
      (value Red)
      (footprint LEDs:LED_0603_HandSoldering)
      (libsource (lib SchematicLib) (part LED))
      (sheetpath (names /ReversPolarityProtection/) (tstamps /5B2025CA/))
      (tstamp 5B203536))
    (comp (ref P4)
      (value Testpoint)
      (footprint FootprintLib:Testpoint_0.4mm)
      (libsource (lib SchematicLib) (part Testpoint))
      (sheetpath (names /ReversPolarityProtection/) (tstamps /5B2025CA/))
      (tstamp 5B203537))
    (comp (ref P8)
      (value Testpoint)
      (footprint FootprintLib:Testpoint_0.4mm)
      (libsource (lib SchematicLib) (part Testpoint))
      (sheetpath (names /ReversPolarityProtection/) (tstamps /5B2025CA/))
      (tstamp 5B203538))
    (comp (ref P2)
      (value Testpoint)
      (footprint FootprintLib:Testpoint_0.4mm)
      (libsource (lib SchematicLib) (part Testpoint))
      (sheetpath (names /ReversPolarityProtection/) (tstamps /5B2025CA/))
      (tstamp 5B203539))
    (comp (ref R2)
      (value 470)
      (footprint Resistors_SMD:R_0603_HandSoldering)
      (libsource (lib SchematicLib) (part R))
      (sheetpath (names /ReversPolarityProtection/) (tstamps /5B2025CA/))
      (tstamp 5B20353A))
    (comp (ref D1)
      (value Green)
      (footprint LEDs:LED_0603_HandSoldering)
      (libsource (lib SchematicLib) (part LED))
      (sheetpath (names /ReversPolarityProtection/) (tstamps /5B2025CA/))
      (tstamp 5B20353B))
    (comp (ref P3)
      (value Testpoint)
      (footprint FootprintLib:Testpoint_0.4mm)
      (libsource (lib SchematicLib) (part Testpoint))
      (sheetpath (names /ReversPolarityProtection/) (tstamps /5B2025CA/))
      (tstamp 5B20353C))
    (comp (ref C1)
      (value 22u)
      (footprint Capacitors_Tantalum_SMD:CP_Tantalum_Case-B_EIA-3528-21_Hand)
      (fields
        (field (name Name) 293D226))
      (libsource (lib SchematicLib) (part C_TAN))
      (sheetpath (names /ReversPolarityProtection/) (tstamps /5B2025CA/))
      (tstamp 5B20353D))
    (comp (ref R9)
      (value 100)
      (footprint Resistors_SMD:R_0603_HandSoldering)
      (libsource (lib SchematicLib) (part R))
      (sheetpath (names /BaterryVoltageMeasurement/) (tstamps /5B20BA8A/))
      (tstamp 5B20C37B))
    (comp (ref R7)
      (value 100)
      (footprint Resistors_SMD:R_0603_HandSoldering)
      (libsource (lib SchematicLib) (part R))
      (sheetpath (names /BaterryVoltageMeasurement/) (tstamps /5B20BA8A/))
      (tstamp 5B20C37C))
    (comp (ref P11)
      (value Testpoint)
      (footprint FootprintLib:Testpoint_0.4mm)
      (libsource (lib SchematicLib) (part Testpoint))
      (sheetpath (names /BaterryVoltageMeasurement/) (tstamps /5B20BA8A/))
      (tstamp 5B20C37D))
    (comp (ref P10)
      (value Testpoint)
      (footprint FootprintLib:Testpoint_0.4mm)
      (libsource (lib SchematicLib) (part Testpoint))
      (sheetpath (names /BaterryVoltageMeasurement/) (tstamps /5B20BA8A/))
      (tstamp 5B20C37E))
    (comp (ref P12)
      (value Testpoint)
      (footprint FootprintLib:Testpoint_0.4mm)
      (libsource (lib SchematicLib) (part Testpoint))
      (sheetpath (names /BaterryVoltageMeasurement/) (tstamps /5B20BA8A/))
      (tstamp 5B20C37F))
    (comp (ref P13)
      (value Testpoint)
      (footprint FootprintLib:Testpoint_0.4mm)
      (libsource (lib SchematicLib) (part Testpoint))
      (sheetpath (names /BaterryVoltageMeasurement/) (tstamps /5B20BA8A/))
      (tstamp 5B20C380))
    (comp (ref R8)
      (value 0)
      (footprint Resistors_SMD:R_0603_HandSoldering)
      (libsource (lib SchematicLib) (part R))
      (sheetpath (names /BaterryVoltageMeasurement/) (tstamps /5B20BA8A/))
      (tstamp 5B20C381))
    (comp (ref JP2)
      (value JUMPER)
      (footprint FootprintLib:SOLDER_JUMPER)
      (libsource (lib SchematicLib) (part JUMPER))
      (sheetpath (names /BaterryVoltageMeasurement/) (tstamps /5B20BA8A/))
      (tstamp 5B20C383))
    (comp (ref C5)
      (value 100n)
      (footprint Capacitors_SMD:C_0603_HandSoldering)
      (libsource (lib SchematicLib) (part C))
      (sheetpath (names /BaterryVoltageMeasurement/) (tstamps /5B20BA8A/))
      (tstamp 5B20C384))
    (comp (ref D4)
      (value BAT54S)
      (footprint TO_SOT_Packages_SMD:SOT-23_Handsoldering)
      (libsource (lib SchematicLib) (part BAT54S))
      (sheetpath (names /BaterryVoltageMeasurement/) (tstamps /5B20BA8A/))
      (tstamp 5B20C387))
    (comp (ref JP3)
      (value JUMPER)
      (footprint FootprintLib:SOLDER_JUMPER)
      (libsource (lib SchematicLib) (part JUMPER))
      (sheetpath (names /BaterryVoltageMeasurement/) (tstamps /5B20BA8A/))
      (tstamp 5B20C388))
    (comp (ref C4)
      (value 100n)
      (footprint Capacitors_SMD:C_0603_HandSoldering)
      (libsource (lib SchematicLib) (part C))
      (sheetpath (names /BaterryVoltageMeasurement/) (tstamps /5B20BA8A/))
      (tstamp 5B20C389))
    (comp (ref U2)
      (value MCP6001U)
      (footprint TO_SOT_Packages_SMD:SOT-23-5_HandSoldering)
      (libsource (lib SchematicLib) (part MCP6001U))
      (sheetpath (names /BaterryVoltageMeasurement/) (tstamps /5B20BA8A/))
      (tstamp 5B20C38B))
    (comp (ref R5)
      (value 169K)
      (footprint Resistors_SMD:R_0603_HandSoldering)
      (libsource (lib SchematicLib) (part R_1%))
      (sheetpath (names /BaterryVoltageMeasurement/) (tstamps /5B20BA8A/))
      (tstamp 5B20C38C))
    (comp (ref R6)
      (value 169K)
      (footprint Resistors_SMD:R_0603_HandSoldering)
      (libsource (lib SchematicLib) (part R_1%))
      (sheetpath (names /BaterryVoltageMeasurement/) (tstamps /5B20BA8A/))
      (tstamp 5B20C38D))
    (comp (ref C3)
      (value 100n)
      (footprint Capacitors_SMD:C_0603_HandSoldering)
      (libsource (lib SchematicLib) (part C))
      (sheetpath (names /BaterryVoltageMeasurement/) (tstamps /5B20BA8A/))
      (tstamp 5B20DC98))
    (comp (ref C2)
      (value 22u)
      (footprint Capacitors_SMD:C_0603_HandSoldering)
      (libsource (lib SchematicLib) (part C))
      (sheetpath (names /BaterryVoltageMeasurement/) (tstamps /5B20BA8A/))
      (tstamp 5B20E52A))
    (comp (ref L1)
      (value L)
      (footprint Inductors_SMD:L_0805_HandSoldering)
      (fields
        (field (name Type) Type))
      (libsource (lib SchematicLib) (part L))
      (sheetpath (names /BaterryVoltageMeasurement/) (tstamps /5B20BA8A/))
      (tstamp 5B20E531))
    (comp (ref P9)
      (value Testpoint)
      (footprint FootprintLib:Testpoint_0.4mm)
      (libsource (lib SchematicLib) (part Testpoint))
      (sheetpath (names /BaterryVoltageMeasurement/) (tstamps /5B20BA8A/))
      (tstamp 5B23971A))
    (comp (ref P29)
      (value Testpoint)
      (footprint FootprintLib:Testpoint_0.4mm)
      (libsource (lib SchematicLib) (part Testpoint))
      (sheetpath (names /BaterryVoltageMeasurement/) (tstamps /5B20BA8A/))
      (tstamp 5B2E6ED4))
    (comp (ref R10)
      (value 0R1)
      (footprint Resistors_SMD:R_0603_HandSoldering)
      (libsource (lib SchematicLib) (part R_1%))
      (sheetpath (names /CurrentMeasurement/) (tstamps /5B215290/))
      (tstamp 5B21A267))
    (comp (ref P21)
      (value Testpoint)
      (footprint FootprintLib:Testpoint_0.4mm)
      (libsource (lib SchematicLib) (part Testpoint))
      (sheetpath (names /CurrentMeasurement/) (tstamps /5B215290/))
      (tstamp 5B21A268))
    (comp (ref P16)
      (value Testpoint)
      (footprint FootprintLib:Testpoint_0.4mm)
      (libsource (lib SchematicLib) (part Testpoint))
      (sheetpath (names /CurrentMeasurement/) (tstamps /5B215290/))
      (tstamp 5B21A285))
    (comp (ref R13)
      (value 100)
      (footprint Resistors_SMD:R_0603_HandSoldering)
      (libsource (lib SchematicLib) (part R))
      (sheetpath (names /CurrentMeasurement/) (tstamps /5B215290/))
      (tstamp 5B21A286))
    (comp (ref R11)
      (value 100)
      (footprint Resistors_SMD:R_0603_HandSoldering)
      (libsource (lib SchematicLib) (part R))
      (sheetpath (names /CurrentMeasurement/) (tstamps /5B215290/))
      (tstamp 5B21A287))
    (comp (ref P18)
      (value Testpoint)
      (footprint FootprintLib:Testpoint_0.4mm)
      (libsource (lib SchematicLib) (part Testpoint))
      (sheetpath (names /CurrentMeasurement/) (tstamps /5B215290/))
      (tstamp 5B21A288))
    (comp (ref P17)
      (value Testpoint)
      (footprint FootprintLib:Testpoint_0.4mm)
      (libsource (lib SchematicLib) (part Testpoint))
      (sheetpath (names /CurrentMeasurement/) (tstamps /5B215290/))
      (tstamp 5B21A289))
    (comp (ref P19)
      (value Testpoint)
      (footprint FootprintLib:Testpoint_0.4mm)
      (libsource (lib SchematicLib) (part Testpoint))
      (sheetpath (names /CurrentMeasurement/) (tstamps /5B215290/))
      (tstamp 5B21A28A))
    (comp (ref P20)
      (value Testpoint)
      (footprint FootprintLib:Testpoint_0.4mm)
      (libsource (lib SchematicLib) (part Testpoint))
      (sheetpath (names /CurrentMeasurement/) (tstamps /5B215290/))
      (tstamp 5B21A28B))
    (comp (ref R12)
      (value 0)
      (footprint Resistors_SMD:R_0603_HandSoldering)
      (libsource (lib SchematicLib) (part R))
      (sheetpath (names /CurrentMeasurement/) (tstamps /5B215290/))
      (tstamp 5B21A28C))
    (comp (ref JP4)
      (value JUMPER)
      (footprint FootprintLib:SOLDER_JUMPER)
      (libsource (lib SchematicLib) (part JUMPER))
      (sheetpath (names /CurrentMeasurement/) (tstamps /5B215290/))
      (tstamp 5B21A28E))
    (comp (ref C10)
      (value 100n)
      (footprint Capacitors_SMD:C_0603_HandSoldering)
      (libsource (lib SchematicLib) (part C))
      (sheetpath (names /CurrentMeasurement/) (tstamps /5B215290/))
      (tstamp 5B21A28F))
    (comp (ref D5)
      (value BAT54S)
      (footprint TO_SOT_Packages_SMD:SOT-23_Handsoldering)
      (libsource (lib SchematicLib) (part BAT54S))
      (sheetpath (names /CurrentMeasurement/) (tstamps /5B215290/))
      (tstamp 5B21A292))
    (comp (ref JP5)
      (value JUMPER)
      (footprint FootprintLib:SOLDER_JUMPER)
      (libsource (lib SchematicLib) (part JUMPER))
      (sheetpath (names /CurrentMeasurement/) (tstamps /5B215290/))
      (tstamp 5B21A293))
    (comp (ref C9)
      (value 100n)
      (footprint Capacitors_SMD:C_0603_HandSoldering)
      (libsource (lib SchematicLib) (part C))
      (sheetpath (names /CurrentMeasurement/) (tstamps /5B215290/))
      (tstamp 5B21A294))
    (comp (ref U3)
      (value INA199)
      (footprint TO_SOT_Packages_SMD:SOT-363_SC-70-6_Handsoldering)
      (libsource (lib SchematicLib) (part INA199))
      (sheetpath (names /CurrentMeasurement/) (tstamps /5B215290/))
      (tstamp 5B21A29D))
    (comp (ref U4)
      (value MCP6001U)
      (footprint TO_SOT_Packages_SMD:SOT-23-5_HandSoldering)
      (libsource (lib SchematicLib) (part MCP6001U))
      (sheetpath (names /CurrentMeasurement/) (tstamps /5B215290/))
      (tstamp 5B21A29F))
    (comp (ref C7)
      (value 100n)
      (footprint Capacitors_SMD:C_0603_HandSoldering)
      (libsource (lib SchematicLib) (part C))
      (sheetpath (names /CurrentMeasurement/) (tstamps /5B215290/))
      (tstamp 5B21C017))
    (comp (ref C6)
      (value 22u)
      (footprint Capacitors_SMD:C_0603_HandSoldering)
      (libsource (lib SchematicLib) (part C))
      (sheetpath (names /CurrentMeasurement/) (tstamps /5B215290/))
      (tstamp 5B21C018))
    (comp (ref L2)
      (value L)
      (footprint Inductors_SMD:L_0805_HandSoldering)
      (fields
        (field (name Type) Type))
      (libsource (lib SchematicLib) (part L))
      (sheetpath (names /CurrentMeasurement/) (tstamps /5B215290/))
      (tstamp 5B21C019))
    (comp (ref C8)
      (value 100n)
      (footprint Capacitors_SMD:C_0603_HandSoldering)
      (libsource (lib SchematicLib) (part C))
      (sheetpath (names /CurrentMeasurement/) (tstamps /5B215290/))
      (tstamp 5B21EFBE))
    (comp (ref P14)
      (value Testpoint)
      (footprint FootprintLib:Testpoint_0.4mm)
      (libsource (lib SchematicLib) (part Testpoint))
      (sheetpath (names /CurrentMeasurement/) (tstamps /5B215290/))
      (tstamp 5B239FA4))
    (comp (ref P15)
      (value Testpoint)
      (footprint FootprintLib:Testpoint_0.4mm)
      (libsource (lib SchematicLib) (part Testpoint))
      (sheetpath (names /CurrentMeasurement/) (tstamps /5B215290/))
      (tstamp 5B23AE1C))
    (comp (ref P26)
      (value Testpoint)
      (footprint FootprintLib:Testpoint_0.4mm)
      (libsource (lib SchematicLib) (part Testpoint))
      (sheetpath (names /VoltageRegulator_3V3/) (tstamps /5B224BB8/))
      (tstamp 5B225339))
    (comp (ref C14)
      (value 22u)
      (footprint Capacitors_SMD:C_0603_HandSoldering)
      (libsource (lib SchematicLib) (part C))
      (sheetpath (names /VoltageRegulator_3V3/) (tstamps /5B224BB8/))
      (tstamp 5B22533A))
    (comp (ref C15)
      (value 100n)
      (footprint Capacitors_SMD:C_0603_HandSoldering)
      (libsource (lib SchematicLib) (part C))
      (sheetpath (names /VoltageRegulator_3V3/) (tstamps /5B224BB8/))
      (tstamp 5B22533B))
    (comp (ref D6)
      (value white)
      (footprint LEDs:LED_0603_HandSoldering)
      (libsource (lib SchematicLib) (part LED))
      (sheetpath (names /VoltageRegulator_3V3/) (tstamps /5B224BB8/))
      (tstamp 5B22533F))
    (comp (ref P28)
      (value Testpoint)
      (footprint FootprintLib:Testpoint_0.4mm)
      (libsource (lib SchematicLib) (part Testpoint))
      (sheetpath (names /VoltageRegulator_3V3/) (tstamps /5B224BB8/))
      (tstamp 5B225340))
    (comp (ref C12)
      (value 100n)
      (footprint Capacitors_SMD:C_0603_HandSoldering)
      (libsource (lib SchematicLib) (part C))
      (sheetpath (names /VoltageRegulator_3V3/) (tstamps /5B224BB8/))
      (tstamp 5B225341))
    (comp (ref C11)
      (value 22u)
      (footprint Capacitors_SMD:C_0603_HandSoldering)
      (libsource (lib SchematicLib) (part C))
      (sheetpath (names /VoltageRegulator_3V3/) (tstamps /5B224BB8/))
      (tstamp 5B225342))
    (comp (ref P24)
      (value Testpoint)
      (footprint FootprintLib:Testpoint_0.4mm)
      (libsource (lib SchematicLib) (part Testpoint))
      (sheetpath (names /VoltageRegulator_3V3/) (tstamps /5B224BB8/))
      (tstamp 5B23B665))
    (comp (ref C32)
      (value 22u)
      (footprint Capacitors_Tantalum_SMD:CP_Tantalum_Case-B_EIA-3528-21_Hand)
      (fields
        (field (name Name) 293D226))
      (libsource (lib SchematicLib) (part C_TAN))
      (sheetpath (names /VoltageRegulator_3V3/) (tstamps /5B224BB8/))
      (tstamp 5B2C437B))
    (comp (ref R19)
      (value 100)
      (footprint Resistors_SMD:R_0603_HandSoldering)
      (libsource (lib SchematicLib) (part R))
      (sheetpath (names /VoltageRegulator_3V3/) (tstamps /5B224BB8/))
      (tstamp 5B22533D))
    (comp (ref U5)
      (value LD1086DT33TR)
      (footprint TO_SOT_Packages_SMD:TO-252-2)
      (libsource (lib SchematicLib) (part LD1086DT33TR))
      (sheetpath (names /VoltageRegulator_3V3/) (tstamps /5B224BB8/))
      (tstamp 5B32AC6D))
    (comp (ref U6)
      (value FT230XS)
      (footprint Housings_SSOP:SSOP-16_5.3x6.2mm_Pitch0.65mm)
      (fields
        (field (name Package) TSSOP16))
      (libsource (lib SchematicLib) (part FT230XS))
      (sheetpath (names /FTDI_FT230/) (tstamps /5B23E220/))
      (tstamp 5B240B42))
    (comp (ref R20)
      (value 27)
      (footprint Resistors_SMD:R_0603_HandSoldering)
      (libsource (lib SchematicLib) (part R))
      (sheetpath (names /FTDI_FT230/) (tstamps /5B23E220/))
      (tstamp 5B240C2D))
    (comp (ref R21)
      (value 27)
      (footprint Resistors_SMD:R_0603_HandSoldering)
      (libsource (lib SchematicLib) (part R))
      (sheetpath (names /FTDI_FT230/) (tstamps /5B23E220/))
      (tstamp 5B240CAA))
    (comp (ref C18)
      (value 47p)
      (footprint Capacitors_SMD:C_0603_HandSoldering)
      (libsource (lib SchematicLib) (part C))
      (sheetpath (names /FTDI_FT230/) (tstamps /5B23E220/))
      (tstamp 5B240D65))
    (comp (ref C17)
      (value 47p)
      (footprint Capacitors_SMD:C_0603_HandSoldering)
      (libsource (lib SchematicLib) (part C))
      (sheetpath (names /FTDI_FT230/) (tstamps /5B23E220/))
      (tstamp 5B240E1C))
    (comp (ref C21)
      (value 100n)
      (footprint Capacitors_SMD:C_0603_HandSoldering)
      (libsource (lib SchematicLib) (part C))
      (sheetpath (names /FTDI_FT230/) (tstamps /5B23E220/))
      (tstamp 5B240E43))
    (comp (ref C16)
      (value 10n)
      (footprint Capacitors_SMD:C_0603_HandSoldering)
      (libsource (lib SchematicLib) (part C))
      (sheetpath (names /FTDI_FT230/) (tstamps /5B23E220/))
      (tstamp 5B240EA1))
    (comp (ref D7)
      (value LED)
      (footprint LEDs:LED_0603_HandSoldering)
      (libsource (lib SchematicLib) (part LED))
      (sheetpath (names /FTDI_FT230/) (tstamps /5B23E220/))
      (tstamp 5B2411A1))
    (comp (ref D8)
      (value LED)
      (footprint LEDs:LED_0603_HandSoldering)
      (libsource (lib SchematicLib) (part LED))
      (sheetpath (names /FTDI_FT230/) (tstamps /5B23E220/))
      (tstamp 5B241274))
    (comp (ref R22)
      (value 270)
      (footprint Resistors_SMD:R_0603_HandSoldering)
      (libsource (lib SchematicLib) (part R))
      (sheetpath (names /FTDI_FT230/) (tstamps /5B23E220/))
      (tstamp 5B241A7C))
    (comp (ref R23)
      (value 270)
      (footprint Resistors_SMD:R_0603_HandSoldering)
      (libsource (lib SchematicLib) (part R))
      (sheetpath (names /FTDI_FT230/) (tstamps /5B23E220/))
      (tstamp 5B241B38))
    (comp (ref L3)
      (value L)
      (footprint Inductors_SMD:L_0805_HandSoldering)
      (fields
        (field (name Type) Type))
      (libsource (lib SchematicLib) (part L))
      (sheetpath (names /FTDI_FT230/) (tstamps /5B23E220/))
      (tstamp 5B242C2B))
    (comp (ref C19)
      (value 100n)
      (footprint Capacitors_SMD:C_0603_HandSoldering)
      (libsource (lib SchematicLib) (part C))
      (sheetpath (names /FTDI_FT230/) (tstamps /5B23E220/))
      (tstamp 5B2438D0))
    (comp (ref C20)
      (value 4u7)
      (footprint Capacitors_SMD:C_0603_HandSoldering)
      (libsource (lib SchematicLib) (part C_TAN))
      (sheetpath (names /FTDI_FT230/) (tstamps /5B23E220/))
      (tstamp 5B243914))
    (comp (ref JP6)
      (value JUMPER)
      (footprint FootprintLib:SOLDER_JUMPER)
      (libsource (lib SchematicLib) (part JUMPER))
      (sheetpath (names /FTDI_FT230/) (tstamps /5B23E220/))
      (tstamp 5B1FEB3F))
    (comp (ref U7)
      (value ISO7221C)
      (footprint Housings_SOIC:SOIC-8_3.9x4.9mm_Pitch1.27mm)
      (libsource (lib SchematicLib) (part ISO7221C))
      (sheetpath (names /FTDI_UART_Isolator/) (tstamps /5B24A50B/))
      (tstamp 5B24C053))
    (comp (ref C22)
      (value 100n)
      (footprint Capacitors_SMD:C_0603_HandSoldering)
      (libsource (lib SchematicLib) (part C))
      (sheetpath (names /FTDI_UART_Isolator/) (tstamps /5B24A50B/))
      (tstamp 5B24DF26))
    (comp (ref C23)
      (value 100n)
      (footprint Capacitors_SMD:C_0603_HandSoldering)
      (libsource (lib SchematicLib) (part C))
      (sheetpath (names /FTDI_UART_Isolator/) (tstamps /5B24A50B/))
      (tstamp 5B24DFDB))
    (comp (ref J5)
      (value Micro_SD_Card_Det)
      (footprint FootprintLib:MOLEX_5027740891_SD_CARD)
      (libsource (lib conn) (part Micro_SD_Card_Det))
      (sheetpath (names /SdCard_SPI/) (tstamps /5B269F5B/))
      (tstamp 5B282C42))
    (comp (ref C25)
      (value 47u)
      (footprint Capacitors_SMD:C_0603_HandSoldering)
      (libsource (lib SchematicLib) (part C_TAN))
      (sheetpath (names /SdCard_SPI/) (tstamps /5B269F5B/))
      (tstamp 5B282DCB))
    (comp (ref C24)
      (value 100n)
      (footprint Capacitors_SMD:C_0603_HandSoldering)
      (libsource (lib SchematicLib) (part C))
      (sheetpath (names /SdCard_SPI/) (tstamps /5B269F5B/))
      (tstamp 5B282DF1))
    (comp (ref R24)
      (value 10K)
      (footprint Resistors_SMD:R_0603_HandSoldering)
      (libsource (lib SchematicLib) (part R))
      (sheetpath (names /SdCard_SPI/) (tstamps /5B269F5B/))
      (tstamp 5B283DCF))
    (comp (ref R26)
      (value 10K)
      (footprint Resistors_SMD:R_0603_HandSoldering)
      (libsource (lib SchematicLib) (part R))
      (sheetpath (names /SdCard_SPI/) (tstamps /5B269F5B/))
      (tstamp 5B2892C4))
    (comp (ref R27)
      (value 10K)
      (footprint Resistors_SMD:R_0603_HandSoldering)
      (libsource (lib SchematicLib) (part R))
      (sheetpath (names /SdCard_SPI/) (tstamps /5B269F5B/))
      (tstamp 5B2892E7))
    (comp (ref R28)
      (value 10K)
      (footprint Resistors_SMD:R_0603_HandSoldering)
      (libsource (lib SchematicLib) (part R))
      (sheetpath (names /SdCard_SPI/) (tstamps /5B269F5B/))
      (tstamp 5B289311))
    (comp (ref R31)
      (value 10K)
      (footprint Resistors_SMD:R_0603_HandSoldering)
      (libsource (lib SchematicLib) (part R))
      (sheetpath (names /SdCard_SPI/) (tstamps /5B269F5B/))
      (tstamp 5B28933A))
    (comp (ref R30)
      (value 10K)
      (footprint Resistors_SMD:R_0603_HandSoldering)
      (libsource (lib SchematicLib) (part R))
      (sheetpath (names /SdCard_SPI/) (tstamps /5B269F5B/))
      (tstamp 5B289394))
    (comp (ref R29)
      (value 10K)
      (footprint Resistors_SMD:R_0603_HandSoldering)
      (libsource (lib SchematicLib) (part R))
      (sheetpath (names /SdCard_SPI/) (tstamps /5B269F5B/))
      (tstamp 5B289B36))
    (comp (ref R25)
      (value 100)
      (footprint Resistors_SMD:R_0603_HandSoldering)
      (libsource (lib SchematicLib) (part R))
      (sheetpath (names /SdCard_SPI/) (tstamps /5B269F5B/))
      (tstamp 5B28A523))
    (comp (ref C26)
      (value 100n)
      (footprint Capacitors_SMD:C_0603_HandSoldering)
      (libsource (lib SchematicLib) (part C))
      (sheetpath (names /SdCard_SPI/) (tstamps /5B269F5B/))
      (tstamp 5B28A636))
    (comp (ref BT1)
      (value Battery_Cell)
      (footprint FootprintLib:Battery_CR1220)
      (libsource (lib device) (part Battery_Cell))
      (sheetpath (names /Rtc_DS1338/) (tstamps /5B29D56B/))
      (tstamp 5B29D753))
    (comp (ref U8)
      (value DS1338)
      (footprint Housings_SOIC:SO-8_5.3x6.2mm_Pitch1.27mm)
      (fields
        (field (name Package) SOIC8))
      (libsource (lib SchematicLib) (part DS1338))
      (sheetpath (names /Rtc_DS1338/) (tstamps /5B29D56B/))
      (tstamp 5B29DFD9))
    (comp (ref Y1)
      (value Crystal)
      (footprint FootprintLib:CrystalOscillator_3.2x1.5_SMD)
      (libsource (lib SchematicLib) (part Crystal))
      (sheetpath (names /Rtc_DS1338/) (tstamps /5B29D56B/))
      (tstamp 5B29E091))
    (comp (ref C29)
      (value 100n)
      (footprint Capacitors_SMD:C_0603_HandSoldering)
      (libsource (lib SchematicLib) (part C))
      (sheetpath (names /Rtc_DS1338/) (tstamps /5B29D56B/))
      (tstamp 5B29E0CC))
    (comp (ref C28)
      (value 100n)
      (footprint Capacitors_SMD:C_0603_HandSoldering)
      (libsource (lib SchematicLib) (part C))
      (sheetpath (names /Rtc_DS1338/) (tstamps /5B29D56B/))
      (tstamp 5B29E1B8))
    (comp (ref R34)
      (value 4K7)
      (footprint Resistors_SMD:R_0603_HandSoldering)
      (libsource (lib SchematicLib) (part R))
      (sheetpath (names /Rtc_DS1338/) (tstamps /5B29D56B/))
      (tstamp 5B29E58B))
    (comp (ref R33)
      (value 4K7)
      (footprint Resistors_SMD:R_0603_HandSoldering)
      (libsource (lib SchematicLib) (part R))
      (sheetpath (names /Rtc_DS1338/) (tstamps /5B29D56B/))
      (tstamp 5B29E621))
    (comp (ref R32)
      (value 4K7)
      (footprint Resistors_SMD:R_0603_HandSoldering)
      (libsource (lib SchematicLib) (part R))
      (sheetpath (names /Rtc_DS1338/) (tstamps /5B29D56B/))
      (tstamp 5B29E64A))
    (comp (ref C27)
      (value 4u7)
      (footprint Capacitors_SMD:C_0603_HandSoldering)
      (libsource (lib SchematicLib) (part C_TAN))
      (sheetpath (names /Rtc_DS1338/) (tstamps /5B29D56B/))
      (tstamp 5B29FCBC))
    (comp (ref U9)
      (value ISO154)
      (footprint Housings_SOIC:SOIC-8_3.9x4.9mm_Pitch1.27mm)
      (libsource (lib SchematicLib) (part ISO154))
      (sheetpath (names /Payload_I2C_Isolator/) (tstamps /5B2B69E3/))
      (tstamp 5B2B8F45))
    (comp (ref C31)
      (value 100n)
      (footprint Capacitors_SMD:C_0603_HandSoldering)
      (libsource (lib SchematicLib) (part C))
      (sheetpath (names /Payload_I2C_Isolator/) (tstamps /5B2B69E3/))
      (tstamp 5B2B9205))
    (comp (ref C30)
      (value 100n)
      (footprint Capacitors_SMD:C_0603_HandSoldering)
      (libsource (lib SchematicLib) (part C))
      (sheetpath (names /Payload_I2C_Isolator/) (tstamps /5B2B69E3/))
      (tstamp 5B2B9259))
    (comp (ref U10)
      (value ISO7221C)
      (footprint Housings_SOIC:SOIC-8_3.9x4.9mm_Pitch1.27mm)
      (libsource (lib SchematicLib) (part ISO7221C))
      (sheetpath (names /Payload_UART_Isolator/) (tstamps /5B30738C/))
      (tstamp 5B30E7FC))
    (comp (ref C33)
      (value 100n)
      (footprint Capacitors_SMD:C_0603_HandSoldering)
      (libsource (lib SchematicLib) (part C))
      (sheetpath (names /Payload_UART_Isolator/) (tstamps /5B30738C/))
      (tstamp 5B30E7FD))
    (comp (ref C34)
      (value 100n)
      (footprint Capacitors_SMD:C_0603_HandSoldering)
      (libsource (lib SchematicLib) (part C))
      (sheetpath (names /Payload_UART_Isolator/) (tstamps /5B30738C/))
      (tstamp 5B30E7FE)))
  (libparts
    (libpart (lib SchematicLib) (part AO6403)
      (description "P-channel MOSFET, Vds=-30V, Id=-6A, RDSon<58mOhm, ")
      (docs https://www.tme.eu/pl/Document/653b651507b56457d29057d9c8d4f77b/AO6403-DTE.pdf)
      (fields
        (field (name Reference) T)
        (field (name Value) AO6403))
      (pins
        (pin (num 1) (name D) (type passive))
        (pin (num 2) (name D) (type passive))
        (pin (num 3) (name G) (type passive))
        (pin (num 4) (name S) (type passive))
        (pin (num 5) (name D) (type passive))
        (pin (num 6) (name D) (type passive))))
    (libpart (lib SchematicLib) (part BAT54S)
      (description "LED generic")
      (footprints
        (fp LED*))
      (fields
        (field (name Reference) D)
        (field (name Value) BAT54S))
      (pins
        (pin (num 1) (name ~) (type passive))
        (pin (num 2) (name ~) (type passive))
        (pin (num 3) (name ~) (type passive))))
    (libpart (lib device) (part Battery_Cell)
      (description "single battery cell")
      (fields
        (field (name Reference) BT)
        (field (name Value) Battery_Cell))
      (pins
        (pin (num 1) (name +) (type passive))
        (pin (num 2) (name -) (type passive))))
    (libpart (lib SchematicLib) (part C)
      (description "Unpolarized capacitor")
      (footprints
        (fp C_*))
      (fields
        (field (name Reference) C)
        (field (name Value) C))
      (pins
        (pin (num 1) (name ~) (type passive))
        (pin (num 2) (name ~) (type passive))))
    (libpart (lib SchematicLib) (part C_TAN)
      (description "Tantalum capacitor")
      (footprints
        (fp CP_*))
      (fields
        (field (name Reference) C)
        (field (name Value) C_TAN))
      (pins
        (pin (num 1) (name ~) (type passive))
        (pin (num 2) (name ~) (type passive))))
    (libpart (lib SchematicLib) (part Con_1x4)
      (description "Generic connector, single row, 01x05")
      (docs ~)
      (fields
        (field (name Reference) J)
        (field (name Value) Con_1x4))
      (pins
        (pin (num 1) (name Pin_1) (type passive))
        (pin (num 2) (name Pin_2) (type passive))
        (pin (num 3) (name Pin_3) (type passive))
        (pin (num 4) (name Pin_4) (type passive))))
    (libpart (lib SchematicLib) (part Con_1x6)
      (description "Generic connector, single row, 01x05")
      (docs ~)
      (fields
        (field (name Reference) J)
        (field (name Value) Con_1x6))
      (pins
        (pin (num 1) (name Pin_1) (type passive))
        (pin (num 2) (name Pin_2) (type passive))
        (pin (num 3) (name Pin_3) (type passive))
        (pin (num 4) (name Pin_4) (type passive))
        (pin (num 5) (name Pin_5) (type passive))
        (pin (num 6) (name Pin_6) (type passive))))
    (libpart (lib conn) (part Conn_01x03)
      (description "Generic connector, single row, 01x03")
      (docs ~)
      (footprints
        (fp Connector*:*_??x*mm*)
        (fp Connector*:*1x??x*mm*)
        (fp Pin?Header?Straight?1X*)
        (fp Pin?Header?Angled?1X*)
        (fp Socket?Strip?Straight?1X*)
        (fp Socket?Strip?Angled?1X*))
      (fields
        (field (name Reference) J)
        (field (name Value) Conn_01x03))
      (pins
        (pin (num 1) (name Pin_1) (type passive))
        (pin (num 2) (name Pin_2) (type passive))
        (pin (num 3) (name Pin_3) (type passive))))
    (libpart (lib SchematicLib) (part Crystal)
      (description "Two pin crystal")
      (footprints
        (fp Crystal*))
      (fields
        (field (name Reference) Y)
        (field (name Value) Crystal))
      (pins
        (pin (num 1) (name 1) (type passive))
        (pin (num 2) (name 2) (type passive))))
    (libpart (lib SchematicLib) (part DS1338)
      (description "Real-Time Clock, I2C, Battery Backup")
      (docs http://ww1.microchip.com/downloads/en/DeviceDoc/20005010F.pdf)
      (footprints
        (fp SOIC*3.9x4.9mm*Pitch1.27mm*)
        (fp TSSOP*4.4x3mm*Pitch0.65mm*)
        (fp MSOP*3x3mm*Pitch0.65mm*)
        (fp DFN*3x2mm*Pitch0.5mm*)
        (fp DIP*W7.62mm*))
      (fields
        (field (name Reference) U)
        (field (name Value) DS1338)
        (field (name Package) SOIC8))
      (pins
        (pin (num 1) (name X1) (type input))
        (pin (num 2) (name X2) (type output))
        (pin (num 3) (name VBAT) (type power_in))
        (pin (num 4) (name VSS) (type power_in))
        (pin (num 5) (name SDA) (type BiDi))
        (pin (num 6) (name SCL) (type input))
        (pin (num 7) (name SWO) (type openCol))
        (pin (num 8) (name VCC) (type power_in))))
    (libpart (lib SchematicLib) (part F)
      (description Fuse)
      (footprints
        (fp F_*)
        (fp F_*))
      (fields
        (field (name Reference) F)
        (field (name Value) F))
      (pins
        (pin (num 1) (name ~) (type passive))
        (pin (num 2) (name ~) (type passive))))
    (libpart (lib SchematicLib) (part FT230XS)
      (fields
        (field (name Reference) U)
        (field (name Value) FT230XS)
        (field (name Package) TSSOP16))
      (pins
        (pin (num 1) (name TXD) (type input))
        (pin (num 2) (name ~RTS) (type input))
        (pin (num 3) (name VCCIO) (type input))
        (pin (num 4) (name RXD) (type input))
        (pin (num 5) (name GND) (type input))
        (pin (num 6) (name ~CTS) (type input))
        (pin (num 7) (name CBUS2) (type input))
        (pin (num 8) (name USB_DP) (type input))
        (pin (num 9) (name USB_DM) (type input))
        (pin (num 10) (name 3V3_OUT) (type input))
        (pin (num 11) (name ~RST) (type input))
        (pin (num 12) (name VCC) (type input))
        (pin (num 13) (name GND) (type input))
        (pin (num 14) (name CBUS1) (type input))
        (pin (num 15) (name CBUS0) (type input))
        (pin (num 16) (name CBUS3) (type input))))
    (libpart (lib SchematicLib) (part INA199)
      (description "20 V/V Gain Current Shunt Sensor")
      (fields
        (field (name Reference) U)
        (field (name Value) INA199))
      (pins
        (pin (num 1) (name Vref) (type input))
        (pin (num 2) (name GND) (type input))
        (pin (num 3) (name VCC) (type input))
        (pin (num 4) (name IN+) (type input))
        (pin (num 5) (name IN-) (type input))
        (pin (num 6) (name OUT) (type input))))
    (libpart (lib SchematicLib) (part ISO154)
      (description "Low Power Dual-Channel 1/1 Digital Isolator, 25Mbps 33ns, Fail-Safe High, SO8")
      (docs http://www.ti.com/general/docs/lit/getliterature.tsp?genericPartNumber=iso7321c&fileType=pdf)
      (footprints
        (fp SO*))
      (fields
        (field (name Reference) U)
        (field (name Value) ISO154)
        (field (name Footprint) Housings_SOIC:SOIC-8_3.9x4.9mm_Pitch1.27mm))
      (pins
        (pin (num 1) (name VCC1) (type power_in))
        (pin (num 2) (name SDA1) (type output))
        (pin (num 3) (name SCL1) (type input))
        (pin (num 4) (name GND1) (type power_in))
        (pin (num 5) (name GND2) (type power_in))
        (pin (num 6) (name SCL2) (type output))
        (pin (num 7) (name SDA2) (type input))
        (pin (num 8) (name VCC2) (type power_in))))
    (libpart (lib SchematicLib) (part ISO7221C)
      (aliases
        (alias ISO7321FC))
      (description "Low Power Dual-Channel 1/1 Digital Isolator, 25Mbps 33ns, Fail-Safe High, SO8")
      (docs http://www.ti.com/general/docs/lit/getliterature.tsp?genericPartNumber=iso7321c&fileType=pdf)
      (footprints
        (fp SO*))
      (fields
        (field (name Reference) U)
        (field (name Value) ISO7221C)
        (field (name Footprint) Housings_SOIC:SOIC-8_3.9x4.9mm_Pitch1.27mm))
      (pins
        (pin (num 1) (name VCC1) (type power_in))
        (pin (num 2) (name OUTA) (type output))
        (pin (num 3) (name INB) (type input))
        (pin (num 4) (name GND1) (type power_in))
        (pin (num 5) (name GND2) (type power_in))
        (pin (num 6) (name OUTB) (type output))
        (pin (num 7) (name INA) (type input))
        (pin (num 8) (name VCC2) (type power_in))))
    (libpart (lib SchematicLib) (part JUMPER)
      (fields
        (field (name Reference) JP)
        (field (name Value) JUMPER))
      (pins
        (pin (num 1) (name ~) (type passive))
        (pin (num 2) (name ~) (type passive))))
    (libpart (lib SchematicLib) (part L)
      (description Inductor)
      (footprints
        (fp Choke_*)
        (fp *Coil*)
        (fp Inductor_*)
        (fp L_*))
      (fields
        (field (name Reference) L)
        (field (name Value) L)
        (field (name Type) HPI04420-1R0))
      (pins
        (pin (num 1) (name 1) (type passive))
        (pin (num 2) (name 2) (type passive))))
    (libpart (lib SchematicLib) (part LD1086DT33TR)
      (description "1.5A Voltage Regulator with Adjustable voltage")
      (fields
        (field (name Reference) U)
        (field (name Value) LD1086DT33TR))
      (pins
        (pin (num 1) (name GND) (type power_out))
        (pin (num 2) (name OUT) (type power_out))
        (pin (num 3) (name VIN) (type input))))
    (libpart (lib SchematicLib) (part LED)
      (description "LED generic")
      (footprints
        (fp LED*))
      (fields
        (field (name Reference) D)
        (field (name Value) LED))
      (pins
        (pin (num 1) (name K) (type passive))
        (pin (num 2) (name A) (type passive))))
    (libpart (lib SchematicLib) (part MCP6001U)
      (description "1 channel opamp with single low power supply, rail to rail")
      (fields
        (field (name Reference) U)
        (field (name Value) MCP6001U))
      (pins
        (pin (num 1) (name +) (type input))
        (pin (num 2) (name V-) (type power_out))
        (pin (num 3) (name -) (type input))
        (pin (num 4) (name ~) (type output))
        (pin (num 5) (name V+) (type power_in))))
    (libpart (lib conn) (part Micro_SD_Card_Det)
      (aliases
        (alias Micro_SD_Card_Det_Hirose_DM3AT))
      (description "Micro SD Card Socket with card detection pins")
      (docs https://www.hirose.com/product/en/download_file/key_name/DM3/category/Catalog/doc_file_id/49662/?file_category_id=4&item_id=195&is_series=1)
      (footprints
        (fp microSD*Card*Receptable*))
      (fields
        (field (name Reference) J)
        (field (name Value) Micro_SD_Card_Det))
      (pins
        (pin (num 1) (name DAT2) (type BiDi))
        (pin (num 2) (name DAT3/CD) (type BiDi))
        (pin (num 3) (name CMD) (type input))
        (pin (num 4) (name VDD) (type power_in))
        (pin (num 5) (name CLK) (type input))
        (pin (num 6) (name VSS) (type power_in))
        (pin (num 7) (name DAT0) (type input))
        (pin (num 8) (name DAT1) (type input))
        (pin (num 9) (name DET_B) (type passive))
        (pin (num 10) (name DET_A) (type passive))
        (pin (num 11) (name SHIELD) (type passive))))
    (libpart (lib SchematicLib) (part R)
      (description Resistor)
      (footprints
        (fp R_*)
        (fp R_*))
      (fields
        (field (name Reference) R)
        (field (name Value) R))
      (pins
        (pin (num 1) (name ~) (type passive))
        (pin (num 2) (name ~) (type passive))))
    (libpart (lib SchematicLib) (part R_1%)
      (description Resistor)
      (footprints
        (fp R_*)
        (fp R_*))
      (fields
        (field (name Reference) R)
        (field (name Value) R_1%))
      (pins
        (pin (num 1) (name ~) (type passive))
        (pin (num 2) (name ~) (type passive))))
    (libpart (lib SchematicLib) (part Testpoint)
      (fields
        (field (name Reference) P)
        (field (name Value) Testpoint))
      (pins
        (pin (num 1) (name ~) (type passive))))
    (libpart (lib conn) (part USB_OTG)
      (description "USB mini/micro connector")
      (footprints
        (fp USB*))
      (fields
        (field (name Reference) J)
        (field (name Value) USB_OTG))
      (pins
        (pin (num 1) (name VBUS) (type power_in))
        (pin (num 2) (name D-) (type passive))
        (pin (num 3) (name D+) (type passive))
        (pin (num 4) (name ID) (type passive))
        (pin (num 5) (name GND) (type power_in))
        (pin (num 6) (name Shield) (type passive))))
    (libpart (lib SchematicLib) (part Zener)
      (description "LED generic")
      (footprints
        (fp LED*))
      (fields
        (field (name Reference) D)
        (field (name Value) Zener))
      (pins
        (pin (num 1) (name K) (type passive))
        (pin (num 2) (name A) (type passive)))))
  (libraries
    (library (logical SchematicLib)
      (uri C:\WorkSpace\Projects\Private\StratosphericBalloon\MainControlUnit\Hardware\Kicad-Lib\SchematicLib.lib))
    (library (logical device)
      (uri C:\Programy\KiCad\share\kicad\library\device.lib))
    (library (logical conn)
      (uri C:\Programy\KiCad\share\kicad\library\conn.lib)))
  (nets
    (net (code 1) (name ~SD_DETECT)
      (node (ref R25) (pin 1))
      (node (ref R24) (pin 2))
      (node (ref J5) (pin 10)))
    (net (code 2) (name /FTDI_FT230/VZAS)
      (node (ref D7) (pin 2))
      (node (ref L3) (pin 2))
      (node (ref D8) (pin 2))
      (node (ref U6) (pin 12))
      (node (ref C19) (pin 1))
      (node (ref C20) (pin 1))
      (node (ref C22) (pin 1))
      (node (ref U7) (pin 8)))
    (net (code 3) (name Config_Rx)
      (node (ref U7) (pin 2)))
    (net (code 4) (name Config_Tx)
      (node (ref U7) (pin 3)))
    (net (code 5) (name SD_MISO)
      (node (ref R27) (pin 2))
      (node (ref J5) (pin 7)))
    (net (code 6) (name SD_MOSI)
      (node (ref R29) (pin 2))
      (node (ref J5) (pin 3)))
    (net (code 7) (name SD_SCK)
      (node (ref R28) (pin 2))
      (node (ref J5) (pin 5)))
    (net (code 8) (name ~SD_CS)
      (node (ref R30) (pin 2))
      (node (ref J5) (pin 2)))
    (net (code 9) (name /FTDI_FT230/RXD)
      (node (ref U7) (pin 6))
      (node (ref U6) (pin 4)))
    (net (code 10) (name RTC_SWO)
      (node (ref R34) (pin 2))
      (node (ref U8) (pin 7)))
    (net (code 11) (name RTC_SCL)
      (node (ref R33) (pin 2))
      (node (ref U8) (pin 6)))
    (net (code 12) (name RTC_SDA)
      (node (ref U8) (pin 5))
      (node (ref R32) (pin 2)))
    (net (code 13) (name PAYLOAD_SDA)
      (node (ref U9) (pin 2))
      (node (ref J4) (pin 1)))
    (net (code 14) (name PAYLOAD_SCL)
      (node (ref U9) (pin 3))
      (node (ref J4) (pin 2)))
    (net (code 15) (name /Payload_I2C_Isolator/GND2)
      (node (ref C31) (pin 2))
      (node (ref J4) (pin 6))
      (node (ref U9) (pin 5)))
    (net (code 16) (name /Payload_I2C_Isolator/ISO_SCL)
      (node (ref J4) (pin 5))
      (node (ref U9) (pin 6)))
    (net (code 17) (name BatteryVoltage)
      (node (ref JP3) (pin 2))
      (node (ref P29) (pin 1)))
    (net (code 18) (name Current)
      (node (ref P21) (pin 1))
      (node (ref JP5) (pin 2)))
    (net (code 19) (name "Net-(J2-Pad4)")
      (node (ref JP1) (pin 1))
      (node (ref J2) (pin 4)))
    (net (code 20) (name /FTDI_FT230/USBGND)
      (node (ref C21) (pin 2))
      (node (ref U6) (pin 13))
      (node (ref J2) (pin 5))
      (node (ref J2) (pin 6))
      (node (ref C18) (pin 2))
      (node (ref C17) (pin 2))
      (node (ref C16) (pin 2))
      (node (ref JP1) (pin 2))
      (node (ref JP6) (pin 1))
      (node (ref C19) (pin 2))
      (node (ref C20) (pin 2)))
    (net (code 21) (name /FTDI_FT230/DM)
      (node (ref C18) (pin 1))
      (node (ref R21) (pin 2))
      (node (ref J2) (pin 2)))
    (net (code 22) (name /FTDI_FT230/DP)
      (node (ref R20) (pin 2))
      (node (ref C17) (pin 1))
      (node (ref J2) (pin 3)))
    (net (code 23) (name /FTDI_FT230/VBUS)
      (node (ref C16) (pin 1))
      (node (ref L3) (pin 1))
      (node (ref J2) (pin 1)))
    (net (code 24) (name /FTDI_FT230/GND)
      (node (ref C22) (pin 2))
      (node (ref U6) (pin 5))
      (node (ref U7) (pin 5))
      (node (ref JP6) (pin 2)))
    (net (code 25) (name /FTDI_FT230/TXD)
      (node (ref U6) (pin 1))
      (node (ref U7) (pin 7)))
    (net (code 26) (name PAYLOAD_RXD)
      (node (ref J6) (pin 5))
      (node (ref U10) (pin 2)))
    (net (code 27) (name PAYLOAD_TXD)
      (node (ref U10) (pin 3))
      (node (ref J6) (pin 6)))
    (net (code 28) (name /Payload_UART_Isolator/Vcc2)
      (node (ref J6) (pin 1))
      (node (ref U10) (pin 8))
      (node (ref C34) (pin 1)))
    (net (code 29) (name 3V3)
      (node (ref L2) (pin 2))
      (node (ref D6) (pin 2))
      (node (ref P26) (pin 1))
      (node (ref C14) (pin 1))
      (node (ref C15) (pin 1))
      (node (ref C32) (pin 1))
      (node (ref U5) (pin 2))
      (node (ref L1) (pin 2))
      (node (ref C33) (pin 1))
      (node (ref C27) (pin 1))
      (node (ref U8) (pin 8))
      (node (ref R24) (pin 1))
      (node (ref R26) (pin 1))
      (node (ref R27) (pin 1))
      (node (ref R28) (pin 1))
      (node (ref C30) (pin 1))
      (node (ref U9) (pin 1))
      (node (ref J3) (pin 4))
      (node (ref C28) (pin 1))
      (node (ref R34) (pin 1))
      (node (ref R33) (pin 1))
      (node (ref R32) (pin 1))
      (node (ref U10) (pin 1))
      (node (ref C23) (pin 1))
      (node (ref U7) (pin 1))
      (node (ref R31) (pin 1))
      (node (ref R30) (pin 1))
      (node (ref R29) (pin 1))
      (node (ref J5) (pin 4))
      (node (ref C25) (pin 1))
      (node (ref C24) (pin 1)))
    (net (code 30) (name /Payload_UART_Isolator/RXD_IN)
      (node (ref U10) (pin 7))
      (node (ref J6) (pin 2)))
    (net (code 31) (name /Payload_UART_Isolator/TXD_OUT)
      (node (ref J6) (pin 3))
      (node (ref U10) (pin 6)))
    (net (code 32) (name /Payload_UART_Isolator/GND2)
      (node (ref C34) (pin 2))
      (node (ref U10) (pin 5))
      (node (ref J6) (pin 4)))
    (net (code 33) (name /Payload_I2C_Isolator/ISO_SDA)
      (node (ref J4) (pin 4))
      (node (ref U9) (pin 7)))
    (net (code 34) (name /Payload_I2C_Isolator/VCC2)
      (node (ref J4) (pin 3))
      (node (ref C31) (pin 1))
      (node (ref U9) (pin 8)))
    (net (code 35) (name PCU_RX)
      (node (ref J3) (pin 3)))
    (net (code 36) (name PCU_TX)
      (node (ref J3) (pin 2)))
    (net (code 37) (name /BaterryVoltageMeasurement/Vbat)
      (node (ref J1) (pin 1))
      (node (ref R5) (pin 2)))
    (net (code 38) (name /ReversPolarityProtection/BAT)
      (node (ref P1) (pin 1))
      (node (ref J1) (pin 2))
      (node (ref D1) (pin 2))
      (node (ref D2) (pin 1))
      (node (ref F1) (pin 2)))
    (net (code 39) (name /CurrentMeasurement/Vin)
      (node (ref U1) (pin 4))
      (node (ref DZ1) (pin 1))
      (node (ref U3) (pin 4))
      (node (ref P7) (pin 1))
      (node (ref D3) (pin 2))
      (node (ref R10) (pin 2))
      (node (ref P14) (pin 1))
      (node (ref C1) (pin 1)))
    (net (code 40) (name /CurrentMeasurement/Vout)
      (node (ref U5) (pin 3))
      (node (ref C12) (pin 1))
      (node (ref C11) (pin 1))
      (node (ref U3) (pin 5))
      (node (ref P24) (pin 1))
      (node (ref R10) (pin 1))
      (node (ref P15) (pin 1)))
    (net (code 41) (name "Net-(D3-Pad1)")
      (node (ref R4) (pin 1))
      (node (ref D3) (pin 1))
      (node (ref P8) (pin 1)))
    (net (code 42) (name "Net-(D2-Pad2)")
      (node (ref P4) (pin 1))
      (node (ref R2) (pin 1))
      (node (ref D2) (pin 2)))
    (net (code 43) (name "Net-(F1-Pad1)")
      (node (ref U1) (pin 6))
      (node (ref U1) (pin 5))
      (node (ref U1) (pin 2))
      (node (ref U1) (pin 1))
      (node (ref F1) (pin 1))
      (node (ref P5) (pin 1)))
    (net (code 44) (name "Net-(DZ1-Pad2)")
      (node (ref U1) (pin 3))
      (node (ref DZ1) (pin 2))
      (node (ref R3) (pin 1))
      (node (ref P6) (pin 1)))
    (net (code 45) (name "Net-(D1-Pad1)")
      (node (ref P3) (pin 1))
      (node (ref D1) (pin 1))
      (node (ref R1) (pin 2)))
    (net (code 46) (name "Net-(P10-Pad1)")
      (node (ref R8) (pin 2))
      (node (ref P10) (pin 1))
      (node (ref U2) (pin 3)))
    (net (code 47) (name "Net-(JP2-Pad1)")
      (node (ref P12) (pin 1))
      (node (ref U2) (pin 4))
      (node (ref JP2) (pin 1))
      (node (ref R9) (pin 2))
      (node (ref R8) (pin 1)))
    (net (code 48) (name "Net-(C5-Pad1)")
      (node (ref C5) (pin 1))
      (node (ref P13) (pin 1))
      (node (ref R9) (pin 1))
      (node (ref JP3) (pin 1)))
    (net (code 49) (name /BaterryVoltageMeasurement/VCC_MCP)
      (node (ref D4) (pin 2))
      (node (ref L1) (pin 1))
      (node (ref U2) (pin 5))
      (node (ref C2) (pin 1))
      (node (ref C3) (pin 1)))
    (net (code 50) (name "Net-(D4-Pad3)")
      (node (ref JP2) (pin 2))
      (node (ref D4) (pin 3))
      (node (ref R7) (pin 2))
      (node (ref P9) (pin 1))
      (node (ref R6) (pin 2))
      (node (ref R5) (pin 1)))
    (net (code 51) (name "Net-(C4-Pad1)")
      (node (ref C4) (pin 1))
      (node (ref P11) (pin 1))
      (node (ref U2) (pin 1))
      (node (ref R7) (pin 1)))
    (net (code 52) (name "Net-(P17-Pad1)")
      (node (ref U4) (pin 3))
      (node (ref R12) (pin 2))
      (node (ref P17) (pin 1)))
    (net (code 53) (name "Net-(C9-Pad1)")
      (node (ref R11) (pin 1))
      (node (ref U4) (pin 1))
      (node (ref P18) (pin 1))
      (node (ref C9) (pin 1)))
    (net (code 54) (name "Net-(JP4-Pad1)")
      (node (ref P19) (pin 1))
      (node (ref R12) (pin 1))
      (node (ref JP4) (pin 1))
      (node (ref R13) (pin 2))
      (node (ref U4) (pin 4)))
    (net (code 55) (name /CurrentMeasurement/VCC_INA)
      (node (ref C6) (pin 1))
      (node (ref D5) (pin 2))
      (node (ref L2) (pin 1))
      (node (ref C7) (pin 1))
      (node (ref C8) (pin 1))
      (node (ref U3) (pin 3))
      (node (ref U4) (pin 5)))
    (net (code 56) (name "Net-(D5-Pad3)")
      (node (ref U3) (pin 6))
      (node (ref JP4) (pin 2))
      (node (ref P16) (pin 1))
      (node (ref R11) (pin 2))
      (node (ref D5) (pin 3)))
    (net (code 57) (name "Net-(C10-Pad1)")
      (node (ref JP5) (pin 1))
      (node (ref P20) (pin 1))
      (node (ref R13) (pin 1))
      (node (ref C10) (pin 1)))
    (net (code 58) (name "Net-(D6-Pad1)")
      (node (ref R19) (pin 1))
      (node (ref P28) (pin 1))
      (node (ref D6) (pin 1)))
    (net (code 59) (name "Net-(D7-Pad1)")
      (node (ref D7) (pin 1))
      (node (ref R22) (pin 2)))
    (net (code 60) (name "Net-(D8-Pad1)")
      (node (ref D8) (pin 1))
      (node (ref R23) (pin 2)))
    (net (code 61) (name "Net-(U6-Pad16)")
      (node (ref U6) (pin 16)))
    (net (code 62) (name "Net-(R21-Pad1)")
      (node (ref R21) (pin 1))
      (node (ref U6) (pin 9)))
    (net (code 63) (name "Net-(R20-Pad1)")
      (node (ref R20) (pin 1))
      (node (ref U6) (pin 8)))
    (net (code 64) (name "Net-(U6-Pad15)")
      (node (ref U6) (pin 15)))
    (net (code 65) (name "Net-(C21-Pad1)")
      (node (ref U6) (pin 3))
      (node (ref U6) (pin 11))
      (node (ref C21) (pin 1))
      (node (ref U6) (pin 10)))
    (net (code 66) (name "Net-(U6-Pad6)")
      (node (ref U6) (pin 6)))
    (net (code 67) (name "Net-(U6-Pad2)")
      (node (ref U6) (pin 2)))
    (net (code 68) (name /FTDI_FT230/~RXLED)
      (node (ref R22) (pin 1))
      (node (ref U6) (pin 14)))
    (net (code 69) (name /FTDI_FT230/~TXLED)
      (node (ref U6) (pin 7))
      (node (ref R23) (pin 1)))
    (net (code 70) (name "Net-(J5-Pad1)")
      (node (ref R31) (pin 2))
      (node (ref J5) (pin 1)))
    (net (code 71) (name "Net-(C26-Pad1)")
      (node (ref R25) (pin 2))
      (node (ref C26) (pin 1)))
    (net (code 72) (name "Net-(J5-Pad8)")
      (node (ref J5) (pin 8))
      (node (ref R26) (pin 2)))
    (net (code 73) (name "Net-(BT1-Pad1)")
      (node (ref BT1) (pin 1))
      (node (ref C29) (pin 1))
      (node (ref U8) (pin 3)))
    (net (code 74) (name "Net-(U8-Pad2)")
      (node (ref U8) (pin 2))
      (node (ref Y1) (pin 2)))
    (net (code 75) (name "Net-(U8-Pad1)")
      (node (ref U8) (pin 1))
      (node (ref Y1) (pin 1)))
    (net (code 76) (name GND)
      (node (ref C28) (pin 2))
      (node (ref U8) (pin 4))
      (node (ref BT1) (pin 2))
      (node (ref C29) (pin 2))
      (node (ref U10) (pin 4))
      (node (ref C6) (pin 2))
      (node (ref C33) (pin 2))
      (node (ref C9) (pin 2))
      (node (ref J3) (pin 1))
      (node (ref J1) (pin 3))
      (node (ref D5) (pin 1))
      (node (ref C30) (pin 2))
      (node (ref C10) (pin 2))
      (node (ref U9) (pin 4))
      (node (ref R2) (pin 2))
      (node (ref C1) (pin 2))
      (node (ref C3) (pin 2))
      (node (ref P2) (pin 1))
      (node (ref C26) (pin 2))
      (node (ref C2) (pin 2))
      (node (ref D4) (pin 1))
      (node (ref C5) (pin 2))
      (node (ref R6) (pin 1))
      (node (ref C7) (pin 2))
      (node (ref C23) (pin 2))
      (node (ref U7) (pin 4))
      (node (ref U2) (pin 2))
      (node (ref C4) (pin 2))
      (node (ref C32) (pin 2))
      (node (ref C27) (pin 2))
      (node (ref U3) (pin 1))
      (node (ref U3) (pin 2))
      (node (ref U4) (pin 2))
      (node (ref C15) (pin 2))
      (node (ref R4) (pin 2))
      (node (ref C24) (pin 2))
      (node (ref R1) (pin 1))
      (node (ref C11) (pin 2))
      (node (ref C12) (pin 2))
      (node (ref R3) (pin 2))
      (node (ref C25) (pin 2))
      (node (ref C14) (pin 2))
      (node (ref C8) (pin 2))
      (node (ref U5) (pin 1))
      (node (ref J5) (pin 6))
      (node (ref J5) (pin 9))
      (node (ref J5) (pin 11))
      (node (ref R19) (pin 2)))))