EESchema Schematic File Version 2
LIBS:SchematicLib
LIBS:power
LIBS:device
LIBS:switches
LIBS:relays
LIBS:motors
LIBS:transistors
LIBS:conn
LIBS:linear
LIBS:regul
LIBS:74xx
LIBS:cmos4000
LIBS:adc-dac
LIBS:memory
LIBS:xilinx
LIBS:microcontrollers
LIBS:dsp
LIBS:microchip
LIBS:analog_switches
LIBS:motorola
LIBS:texas
LIBS:intel
LIBS:audio
LIBS:interface
LIBS:digital-audio
LIBS:philips
LIBS:display
LIBS:cypress
LIBS:siliconi
LIBS:opto
LIBS:atmel
LIBS:contrib
LIBS:valves
LIBS:MainControlUnit-cache
EELAYER 25 0
EELAYER END
$Descr A4 11693 8268
encoding utf-8
Sheet 2 11
Title ""
Date ""
Rev ""
Comp ""
Comment1 ""
Comment2 ""
Comment3 ""
Comment4 ""
$EndDescr
$Comp
L Testpoint P1
U 1 1 5B20352B
P 4400 3450
F 0 "P1" H 4400 3530 50  0000 C CNN
F 1 "Testpoint" H 4590 3460 50  0001 C CNN
F 2 "FootprintLib:Testpoint_0.4mm" H 4400 3450 100 0001 C CNN
F 3 "" H 4400 3450 100 0001 C CNN
	1    4400 3450
	1    0    0    -1  
$EndComp
$Comp
L AO6403 U1
U 1 1 5B20352C
P 5650 3750
F 0 "U1" H 5500 4150 50  0000 C CNN
F 1 "AO6403" H 5800 4150 50  0000 C CNN
F 2 "TO_SOT_Packages_SMD:SOT-23-6_Handsoldering" V 5700 3800 60  0001 C CNN
F 3 "" V 5700 3800 60  0001 C CNN
	1    5650 3750
	1    0    0    -1  
$EndComp
$Comp
L Zener DZ1
U 1 1 5B20352D
P 6150 3800
F 0 "DZ1" H 6250 3900 50  0000 C CNN
F 1 "BZT52C15" H 6150 3700 50  0000 C CNN
F 2 "Diodes_SMD:D_SOD-123" H 6150 3800 50  0001 C CNN
F 3 "" H 6150 3800 50  0001 C CNN
F 4 "15V" H 6050 3900 50  0000 C CNN "Voltage"
	1    6150 3800
	0    1    1    0   
$EndComp
$Comp
L R R3
U 1 1 5B20352E
P 5750 4250
F 0 "R3" V 5830 4250 50  0000 C CNN
F 1 "10K" V 5750 4250 50  0000 C CNN
F 2 "Resistors_SMD:R_0603_HandSoldering" V 5680 4250 50  0001 C CNN
F 3 "" H 5750 4250 50  0001 C CNN
	1    5750 4250
	1    0    0    -1  
$EndComp
$Comp
L F F1
U 1 1 5B20352F
P 5100 3500
F 0 "F1" V 5200 3450 50  0000 C CNN
F 1 "5A" V 5200 3600 50  0000 C CNN
F 2 "Fuse_Holders_and_Fuses:Fuse_SMD1206_Wave" V 5030 3500 50  0001 C CNN
F 3 "" H 5100 3500 50  0001 C CNN
F 4 "C1F-5" V 5000 3450 60  0000 C CNN "Type"
	1    5100 3500
	0    1    1    0   
$EndComp
$Comp
L Testpoint P6
U 1 1 5B203530
P 5950 4000
F 0 "P6" H 5950 4080 50  0000 C CNN
F 1 "Testpoint" H 6140 4010 50  0001 C CNN
F 2 "FootprintLib:Testpoint_0.4mm" H 5950 4000 100 0001 C CNN
F 3 "" H 5950 4000 100 0001 C CNN
	1    5950 4000
	1    0    0    -1  
$EndComp
$Comp
L Testpoint P5
U 1 1 5B203531
P 5300 3450
F 0 "P5" H 5300 3530 50  0000 C CNN
F 1 "Testpoint" H 5490 3460 50  0001 C CNN
F 2 "FootprintLib:Testpoint_0.4mm" H 5300 3450 100 0001 C CNN
F 3 "" H 5300 3450 100 0001 C CNN
	1    5300 3450
	1    0    0    -1  
$EndComp
$Comp
L Testpoint P7
U 1 1 5B203532
P 6150 3550
F 0 "P7" H 6150 3630 50  0000 C CNN
F 1 "Testpoint" H 6340 3560 50  0001 C CNN
F 2 "FootprintLib:Testpoint_0.4mm" H 6150 3550 100 0001 C CNN
F 3 "" H 6150 3550 100 0001 C CNN
	1    6150 3550
	1    0    0    -1  
$EndComp
$Comp
L R R1
U 1 1 5B203533
P 4650 4250
F 0 "R1" V 4730 4250 50  0000 C CNN
F 1 "470" V 4650 4250 50  0000 C CNN
F 2 "Resistors_SMD:R_0603_HandSoldering" V 4580 4250 50  0001 C CNN
F 3 "" H 4650 4250 50  0001 C CNN
	1    4650 4250
	-1   0    0    1   
$EndComp
$Comp
L R R4
U 1 1 5B203534
P 6450 4250
F 0 "R4" V 6530 4250 50  0000 C CNN
F 1 "470" V 6450 4250 50  0000 C CNN
F 2 "Resistors_SMD:R_0603_HandSoldering" V 6380 4250 50  0001 C CNN
F 3 "" H 6450 4250 50  0001 C CNN
	1    6450 4250
	1    0    0    -1  
$EndComp
$Comp
L LED D3
U 1 1 5B203535
P 6450 3850
F 0 "D3" H 6450 3950 50  0000 C CNN
F 1 "White" H 6550 3750 50  0000 C CNN
F 2 "LEDs:LED_0603_HandSoldering" H 6450 3850 50  0001 C CNN
F 3 "" H 6450 3850 50  0001 C CNN
	1    6450 3850
	0    -1   -1   0   
$EndComp
$Comp
L LED D2
U 1 1 5B203536
P 4900 3850
F 0 "D2" H 4650 3800 50  0000 C CNN
F 1 "Red" H 4800 3950 50  0000 C CNN
F 2 "LEDs:LED_0603_HandSoldering" H 4900 3850 50  0001 C CNN
F 3 "" H 4900 3850 50  0001 C CNN
	1    4900 3850
	0    1    1    0   
$EndComp
Text Notes 4700 3150 0    100  ~ 0
Revers Voltage Protection
$Comp
L Testpoint P4
U 1 1 5B203537
P 5000 4000
F 0 "P4" H 5000 4080 50  0000 C CNN
F 1 "Testpoint" H 5190 4010 50  0001 C CNN
F 2 "FootprintLib:Testpoint_0.4mm" H 5000 4000 100 0001 C CNN
F 3 "" H 5000 4000 100 0001 C CNN
	1    5000 4000
	1    0    0    -1  
$EndComp
$Comp
L Testpoint P8
U 1 1 5B203538
P 6600 4000
F 0 "P8" H 6600 4080 50  0000 C CNN
F 1 "Testpoint" H 6790 4010 50  0001 C CNN
F 2 "FootprintLib:Testpoint_0.4mm" H 6600 4000 100 0001 C CNN
F 3 "" H 6600 4000 100 0001 C CNN
	1    6600 4000
	1    0    0    -1  
$EndComp
$Comp
L Testpoint P2
U 1 1 5B203539
P 4400 4250
F 0 "P2" H 4400 4330 50  0000 C CNN
F 1 "Testpoint" H 4590 4260 50  0001 C CNN
F 2 "FootprintLib:Testpoint_0.4mm" H 4400 4250 100 0001 C CNN
F 3 "" H 4400 4250 100 0001 C CNN
	1    4400 4250
	1    0    0    -1  
$EndComp
Text HLabel 4200 3600 0    50   Input ~ 0
BAT
Text HLabel 4200 4300 0    50   Input ~ 0
BATGND
$Comp
L R R2
U 1 1 5B20353A
P 4900 4250
F 0 "R2" V 4980 4250 50  0000 C CNN
F 1 "470" V 4900 4250 50  0000 C CNN
F 2 "Resistors_SMD:R_0603_HandSoldering" V 4830 4250 50  0001 C CNN
F 3 "" H 4900 4250 50  0001 C CNN
	1    4900 4250
	1    0    0    -1  
$EndComp
$Comp
L LED D1
U 1 1 5B20353B
P 4650 3700
F 0 "D1" H 4500 3800 50  0000 C CNN
F 1 "Green" H 4700 3800 50  0000 C CNN
F 2 "LEDs:LED_0603_HandSoldering" H 4650 3700 50  0001 C CNN
F 3 "" H 4650 3700 50  0001 C CNN
	1    4650 3700
	0    -1   -1   0   
$EndComp
$Comp
L Testpoint P3
U 1 1 5B20353C
P 4750 4000
F 0 "P3" H 4750 4080 50  0000 C CNN
F 1 "Testpoint" H 4940 4010 50  0001 C CNN
F 2 "FootprintLib:Testpoint_0.4mm" H 4750 4000 100 0001 C CNN
F 3 "" H 4750 4000 100 0001 C CNN
	1    4750 4000
	1    0    0    -1  
$EndComp
$Comp
L C_TAN C1
U 1 1 5B20353D
P 6850 4000
F 0 "C1" H 6875 4100 50  0000 L CNN
F 1 "22u" H 6875 3900 50  0000 L CNN
F 2 "Capacitors_Tantalum_SMD:CP_Tantalum_Case-B_EIA-3528-21_Hand" H 6888 3850 50  0001 C CNN
F 3 "" H 6850 4000 50  0001 C CNN
F 4 "293D226" V 7050 4000 60  0000 C CNN "Name"
	1    6850 4000
	1    0    0    -1  
$EndComp
$Comp
L GNDD #PWR020
U 1 1 5B20353E
P 4400 4450
F 0 "#PWR020" H 4400 4200 50  0001 C CNN
F 1 "GNDD" H 4400 4325 50  0000 C CNN
F 2 "" H 4400 4450 50  0001 C CNN
F 3 "" H 4400 4450 50  0001 C CNN
	1    4400 4450
	1    0    0    -1  
$EndComp
$Comp
L GNDD #PWR021
U 1 1 5B20353F
P 4650 4450
F 0 "#PWR021" H 4650 4200 50  0001 C CNN
F 1 "GNDD" H 4650 4325 50  0000 C CNN
F 2 "" H 4650 4450 50  0001 C CNN
F 3 "" H 4650 4450 50  0001 C CNN
	1    4650 4450
	1    0    0    -1  
$EndComp
$Comp
L GNDD #PWR022
U 1 1 5B203540
P 4900 4450
F 0 "#PWR022" H 4900 4200 50  0001 C CNN
F 1 "GNDD" H 4900 4325 50  0000 C CNN
F 2 "" H 4900 4450 50  0001 C CNN
F 3 "" H 4900 4450 50  0001 C CNN
	1    4900 4450
	1    0    0    -1  
$EndComp
$Comp
L GNDD #PWR023
U 1 1 5B203541
P 5750 4450
F 0 "#PWR023" H 5750 4200 50  0001 C CNN
F 1 "GNDD" H 5750 4325 50  0000 C CNN
F 2 "" H 5750 4450 50  0001 C CNN
F 3 "" H 5750 4450 50  0001 C CNN
	1    5750 4450
	1    0    0    -1  
$EndComp
$Comp
L GNDD #PWR024
U 1 1 5B203542
P 6450 4450
F 0 "#PWR024" H 6450 4200 50  0001 C CNN
F 1 "GNDD" H 6450 4325 50  0000 C CNN
F 2 "" H 6450 4450 50  0001 C CNN
F 3 "" H 6450 4450 50  0001 C CNN
	1    6450 4450
	1    0    0    -1  
$EndComp
$Comp
L GNDD #PWR025
U 1 1 5B203543
P 6850 4450
F 0 "#PWR025" H 6850 4200 50  0001 C CNN
F 1 "GNDD" H 6850 4325 50  0000 C CNN
F 2 "" H 6850 4450 50  0001 C CNN
F 3 "" H 6850 4450 50  0001 C CNN
	1    6850 4450
	1    0    0    -1  
$EndComp
Connection ~ 4900 3500
Connection ~ 5950 4050
Wire Wire Line
	6150 4050 6150 3950
Connection ~ 6150 3600
Wire Wire Line
	6150 3550 6150 3650
Connection ~ 5300 3600
Wire Wire Line
	5300 3600 5350 3600
Connection ~ 5300 3700
Wire Wire Line
	5300 3700 5350 3700
Connection ~ 5300 3500
Wire Wire Line
	5300 3450 5300 3800
Wire Wire Line
	5250 3500 5350 3500
Wire Wire Line
	4900 4400 4900 4450
Wire Wire Line
	6450 4450 6450 4400
Connection ~ 5300 3800
Wire Wire Line
	5750 4450 5750 4400
Wire Wire Line
	4900 3500 4900 3700
Wire Wire Line
	4400 3450 4400 3600
Connection ~ 4400 3500
Wire Wire Line
	6450 4050 6600 4050
Wire Wire Line
	6600 4050 6600 4000
Connection ~ 6450 4050
Wire Wire Line
	6450 3600 6450 3700
Connection ~ 6450 3600
Wire Wire Line
	5000 4000 5000 4050
Wire Wire Line
	4400 4250 4400 4450
Connection ~ 4400 4300
Connection ~ 4900 4050
Wire Wire Line
	5000 4050 4900 4050
Wire Wire Line
	4650 4450 4650 4400
Connection ~ 4650 3500
Wire Wire Line
	4750 4000 4750 4050
Wire Wire Line
	4750 4050 4650 4050
Connection ~ 4650 4050
Wire Wire Line
	5750 4050 6150 4050
Connection ~ 5750 4050
Wire Wire Line
	5950 4050 5950 4000
Wire Wire Line
	5750 4000 5750 4100
Wire Wire Line
	5300 3800 5350 3800
Wire Wire Line
	6450 4000 6450 4100
Wire Wire Line
	4650 3850 4650 4100
Wire Wire Line
	4900 4000 4900 4100
Wire Wire Line
	4650 3550 4650 3500
Wire Wire Line
	6850 3600 6850 3850
Connection ~ 6850 3600
Wire Wire Line
	6850 4450 6850 4150
Wire Wire Line
	4200 4300 4400 4300
Wire Wire Line
	4400 3600 4200 3600
Wire Wire Line
	4400 3500 4950 3500
Wire Wire Line
	6000 3600 7400 3600
Text HLabel 7400 3600 2    60   Input ~ 0
Vzas
Text HLabel 7400 4300 2    50   Input ~ 0
GND
$Comp
L GNDD #PWR026
U 1 1 5B206066
P 7250 4450
F 0 "#PWR026" H 7250 4200 50  0001 C CNN
F 1 "GNDD" H 7250 4325 50  0000 C CNN
F 2 "" H 7250 4450 50  0001 C CNN
F 3 "" H 7250 4450 50  0001 C CNN
	1    7250 4450
	-1   0    0    -1  
$EndComp
Wire Wire Line
	7250 4300 7250 4450
Wire Wire Line
	7400 4300 7250 4300
Text Notes 800  1300 0    100  ~ 0
SchematicLib is required for this schematic. \nPlease write to siecinski.kamil@gmail.com if you need access to this library. \nIt is totally free.
$EndSCHEMATC
