EESchema Schematic File Version 2
LIBS:SchematicLib
LIBS:power
LIBS:device
LIBS:switches
LIBS:relays
LIBS:motors
LIBS:transistors
LIBS:conn
LIBS:linear
LIBS:regul
LIBS:74xx
LIBS:cmos4000
LIBS:adc-dac
LIBS:memory
LIBS:xilinx
LIBS:microcontrollers
LIBS:dsp
LIBS:microchip
LIBS:analog_switches
LIBS:motorola
LIBS:texas
LIBS:intel
LIBS:audio
LIBS:interface
LIBS:digital-audio
LIBS:philips
LIBS:display
LIBS:cypress
LIBS:siliconi
LIBS:opto
LIBS:atmel
LIBS:contrib
LIBS:valves
LIBS:MainControlUnit-cache
EELAYER 25 0
EELAYER END
$Descr A4 11693 8268
encoding utf-8
Sheet 5 11
Title ""
Date ""
Rev ""
Comp ""
Comment1 ""
Comment2 ""
Comment3 ""
Comment4 ""
$EndDescr
$Comp
L GND #PWR040
U 1 1 5B225337
P 6550 3550
F 0 "#PWR040" H 6550 3300 50  0001 C CNN
F 1 "GND" H 6550 3400 50  0000 C CNN
F 2 "" H 6550 3550 50  0001 C CNN
F 3 "" H 6550 3550 50  0001 C CNN
	1    6550 3550
	1    0    0    -1  
$EndComp
$Comp
L C C14
U 1 1 5B22533A
P 6550 3300
F 0 "C14" H 6575 3400 50  0000 L CNN
F 1 "22u" H 6575 3200 50  0000 L CNN
F 2 "Capacitors_SMD:C_0603_HandSoldering" H 6588 3150 50  0001 C CNN
F 3 "" H 6550 3300 50  0001 C CNN
	1    6550 3300
	1    0    0    -1  
$EndComp
$Comp
L C C15
U 1 1 5B22533B
P 6800 3300
F 0 "C15" H 6825 3400 50  0000 L CNN
F 1 "100n" H 6825 3200 50  0000 L CNN
F 2 "Capacitors_SMD:C_0603_HandSoldering" H 6838 3150 50  0001 C CNN
F 3 "" H 6800 3300 50  0001 C CNN
	1    6800 3300
	1    0    0    -1  
$EndComp
$Comp
L GND #PWR041
U 1 1 5B22533C
P 6800 3550
F 0 "#PWR041" H 6800 3300 50  0001 C CNN
F 1 "GND" H 6800 3400 50  0000 C CNN
F 2 "" H 6800 3550 50  0001 C CNN
F 3 "" H 6800 3550 50  0001 C CNN
	1    6800 3550
	1    0    0    -1  
$EndComp
Text Notes 5050 4750 0    100  ~ 0
3.3V/1A Voltage Regulator 
$Comp
L LED D6
U 1 1 5B22533F
P 7150 3300
F 0 "D6" H 7150 3400 50  0000 C CNN
F 1 "white" H 7150 3200 50  0000 C CNN
F 2 "LEDs:LED_0603_HandSoldering" H 7150 3300 50  0001 C CNN
F 3 "" H 7150 3300 50  0001 C CNN
	1    7150 3300
	0    -1   -1   0   
$EndComp
$Comp
L Testpoint P28
U 1 1 5B225340
P 7400 3450
F 0 "P28" H 7400 3530 50  0000 C CNN
F 1 "Testpoint" H 7590 3460 50  0001 C CNN
F 2 "FootprintLib:Testpoint_0.4mm" H 7400 3450 100 0001 C CNN
F 3 "" H 7400 3450 100 0001 C CNN
	1    7400 3450
	1    0    0    -1  
$EndComp
$Comp
L C C12
U 1 1 5B225341
P 5300 3300
F 0 "C12" H 5325 3400 50  0000 L CNN
F 1 "100n" H 5325 3200 50  0000 L CNN
F 2 "Capacitors_SMD:C_0603_HandSoldering" H 5338 3150 50  0001 C CNN
F 3 "" H 5300 3300 50  0001 C CNN
	1    5300 3300
	1    0    0    -1  
$EndComp
$Comp
L C C11
U 1 1 5B225342
P 5050 3300
F 0 "C11" H 5075 3400 50  0000 L CNN
F 1 "22u" H 5075 3200 50  0000 L CNN
F 2 "Capacitors_SMD:C_0603_HandSoldering" H 5088 3150 50  0001 C CNN
F 3 "" H 5050 3300 50  0001 C CNN
	1    5050 3300
	1    0    0    -1  
$EndComp
$Comp
L GND #PWR042
U 1 1 5B225343
P 5050 3500
F 0 "#PWR042" H 5050 3250 50  0001 C CNN
F 1 "GND" H 5050 3350 50  0000 C CNN
F 2 "" H 5050 3500 50  0001 C CNN
F 3 "" H 5050 3500 50  0001 C CNN
	1    5050 3500
	1    0    0    -1  
$EndComp
$Comp
L GND #PWR043
U 1 1 5B225344
P 5300 3500
F 0 "#PWR043" H 5300 3250 50  0001 C CNN
F 1 "GND" H 5300 3350 50  0000 C CNN
F 2 "" H 5300 3500 50  0001 C CNN
F 3 "" H 5300 3500 50  0001 C CNN
	1    5300 3500
	1    0    0    -1  
$EndComp
Connection ~ 7150 3100
Connection ~ 5050 3100
Wire Wire Line
	5050 3100 5050 3150
Connection ~ 5300 3100
Wire Wire Line
	5050 3500 5050 3450
Wire Wire Line
	5300 3500 5300 3450
Wire Wire Line
	4800 3100 5400 3100
Connection ~ 6550 3100
Wire Wire Line
	6800 3550 6800 3450
Wire Wire Line
	6550 3550 6550 3450
Wire Wire Line
	6800 3100 6800 3150
Connection ~ 6800 3100
Connection ~ 7150 3500
Wire Wire Line
	7400 3500 7400 3450
Wire Wire Line
	7150 3500 7400 3500
Wire Wire Line
	7150 3100 7150 3150
Wire Wire Line
	6500 3100 8200 3100
Text HLabel 4800 3100 0    60   Input ~ 0
Vzas
Text HLabel 8200 3100 2    60   Input ~ 0
3V3
Text HLabel 8200 3400 2    60   Input ~ 0
GND
$Comp
L GND #PWR044
U 1 1 5B2273DC
P 8050 3500
F 0 "#PWR044" H 8050 3250 50  0001 C CNN
F 1 "GND" H 8050 3350 50  0000 C CNN
F 2 "" H 8050 3500 50  0001 C CNN
F 3 "" H 8050 3500 50  0001 C CNN
	1    8050 3500
	-1   0    0    -1  
$EndComp
Wire Wire Line
	8050 3500 8050 3400
Wire Wire Line
	8050 3400 8200 3400
$Comp
L C_TAN C32
U 1 1 5B2C437B
P 7650 3300
F 0 "C32" H 7675 3400 50  0000 L CNN
F 1 "22u" H 7675 3200 50  0000 L CNN
F 2 "Capacitors_Tantalum_SMD:CP_Tantalum_Case-B_EIA-3528-21_Hand" H 7688 3150 50  0001 C CNN
F 3 "" H 7650 3300 50  0001 C CNN
F 4 "293D226" H 7650 3600 60  0000 C CNN "Name"
	1    7650 3300
	1    0    0    -1  
$EndComp
Text Notes 800  1300 0    100  ~ 0
SchematicLib is required for this schematic. \nPlease write to siecinski.kamil@gmail.com if you need access to this library. \nIt is totally free.
$Comp
L GND #PWR045
U 1 1 5B2C50DA
P 7650 3500
F 0 "#PWR045" H 7650 3250 50  0001 C CNN
F 1 "GND" H 7650 3350 50  0000 C CNN
F 2 "" H 7650 3500 50  0001 C CNN
F 3 "" H 7650 3500 50  0001 C CNN
	1    7650 3500
	1    0    0    -1  
$EndComp
Wire Wire Line
	7650 3450 7650 3500
Wire Wire Line
	7650 3150 7650 3100
Connection ~ 7650 3100
Wire Wire Line
	7150 3450 7150 3550
$Comp
L R R19
U 1 1 5B22533D
P 7150 3700
F 0 "R19" V 7230 3700 50  0000 C CNN
F 1 "100" V 7150 3700 50  0000 C CNN
F 2 "Resistors_SMD:R_0603_HandSoldering" V 7080 3700 50  0001 C CNN
F 3 "" H 7150 3700 50  0001 C CNN
	1    7150 3700
	1    0    0    -1  
$EndComp
Wire Wire Line
	7150 3900 7150 3850
$Comp
L GND #PWR046
U 1 1 5B22533E
P 7150 3900
F 0 "#PWR046" H 7150 3650 50  0001 C CNN
F 1 "GND" H 7150 3750 50  0000 C CNN
F 2 "" H 7150 3900 50  0001 C CNN
F 3 "" H 7150 3900 50  0001 C CNN
	1    7150 3900
	1    0    0    -1  
$EndComp
$Comp
L LD1086DT33TR U5
U 1 1 5B32AC6D
P 5950 3350
F 0 "U5" H 5650 3750 50  0000 C CNN
F 1 "LD1086DT33TR" H 6100 3750 50  0000 C CNN
F 2 "TO_SOT_Packages_SMD:TO-252-2" H 5900 3000 50  0001 C CNN
F 3 "" H 5900 3000 50  0001 C CNN
	1    5950 3350
	1    0    0    -1  
$EndComp
$Comp
L GND #PWR047
U 1 1 5B32AE8F
P 5950 3600
F 0 "#PWR047" H 5950 3350 50  0001 C CNN
F 1 "GND" H 5950 3450 50  0000 C CNN
F 2 "" H 5950 3600 50  0001 C CNN
F 3 "" H 5950 3600 50  0001 C CNN
	1    5950 3600
	1    0    0    -1  
$EndComp
Wire Wire Line
	5950 3600 5950 3550
Wire Wire Line
	6550 3150 6550 3100
Wire Wire Line
	5300 3150 5300 3100
$EndSCHEMATC
