EESchema Schematic File Version 2
LIBS:SchematicLib
LIBS:power
LIBS:device
LIBS:switches
LIBS:relays
LIBS:motors
LIBS:transistors
LIBS:conn
LIBS:linear
LIBS:regul
LIBS:74xx
LIBS:cmos4000
LIBS:adc-dac
LIBS:memory
LIBS:xilinx
LIBS:microcontrollers
LIBS:dsp
LIBS:microchip
LIBS:analog_switches
LIBS:motorola
LIBS:texas
LIBS:intel
LIBS:audio
LIBS:interface
LIBS:digital-audio
LIBS:philips
LIBS:display
LIBS:cypress
LIBS:siliconi
LIBS:opto
LIBS:atmel
LIBS:contrib
LIBS:valves
LIBS:PowerControlUnit-cache
EELAYER 25 0
EELAYER END
$Descr A4 11693 8268
encoding utf-8
Sheet 3 3
Title ""
Date ""
Rev ""
Comp ""
Comment1 ""
Comment2 ""
Comment3 ""
Comment4 ""
$EndDescr
$Comp
L Testpoint P15
U 1 1 5B0B7640
P 3800 1400
F 0 "P15" H 3800 1480 50  0000 C CNN
F 1 "Testpoint" H 3990 1410 50  0001 C CNN
F 2 "FootprintLib:Testpoint_0.4mm" H 3800 1400 100 0001 C CNN
F 3 "" H 3800 1400 100 0001 C CNN
	1    3800 1400
	1    0    0    -1  
$EndComp
$Comp
L AO6403 U10
U 1 1 5B0B7642
P 5050 1700
F 0 "U10" H 4900 2100 50  0000 C CNN
F 1 "AO6403" H 5200 2100 50  0000 C CNN
F 2 "TO_SOT_Packages_SMD:SOT-23-6_Handsoldering" V 5100 1750 60  0001 C CNN
F 3 "" V 5100 1750 60  0001 C CNN
	1    5050 1700
	1    0    0    -1  
$EndComp
$Comp
L Zener DZ2
U 1 1 5B0B7643
P 5550 1750
F 0 "DZ2" H 5650 1850 50  0000 C CNN
F 1 "BZT52C15" H 5550 1650 50  0000 C CNN
F 2 "Diodes_SMD:D_SOD-123" H 5550 1750 50  0001 C CNN
F 3 "" H 5550 1750 50  0001 C CNN
F 4 "15V" H 5450 1850 50  0000 C CNN "Voltage"
	1    5550 1750
	0    1    1    0   
$EndComp
$Comp
L R R12
U 1 1 5B0B7644
P 5150 2200
F 0 "R12" V 5230 2200 50  0000 C CNN
F 1 "10K" V 5150 2200 50  0000 C CNN
F 2 "Resistors_SMD:R_0603_HandSoldering" V 5080 2200 50  0001 C CNN
F 3 "" H 5150 2200 50  0001 C CNN
	1    5150 2200
	1    0    0    -1  
$EndComp
$Comp
L F F2
U 1 1 5B0B7646
P 4500 1450
F 0 "F2" V 4600 1400 50  0000 C CNN
F 1 "5A" V 4600 1550 50  0000 C CNN
F 2 "Fuse_Holders_and_Fuses:Fuse_SMD1206_Wave" V 4430 1450 50  0001 C CNN
F 3 "" H 4500 1450 50  0001 C CNN
F 4 "C1F-5" V 4400 1400 60  0000 C CNN "Type"
	1    4500 1450
	0    1    1    0   
$EndComp
$Comp
L Testpoint P25
U 1 1 5B0B7647
P 5350 1950
F 0 "P25" H 5350 2030 50  0000 C CNN
F 1 "Testpoint" H 5540 1960 50  0001 C CNN
F 2 "FootprintLib:Testpoint_0.4mm" H 5350 1950 100 0001 C CNN
F 3 "" H 5350 1950 100 0001 C CNN
	1    5350 1950
	1    0    0    -1  
$EndComp
$Comp
L Testpoint P22
U 1 1 5B0B7648
P 4700 1400
F 0 "P22" H 4700 1480 50  0000 C CNN
F 1 "Testpoint" H 4890 1410 50  0001 C CNN
F 2 "FootprintLib:Testpoint_0.4mm" H 4700 1400 100 0001 C CNN
F 3 "" H 4700 1400 100 0001 C CNN
	1    4700 1400
	1    0    0    -1  
$EndComp
$Comp
L Testpoint P26
U 1 1 5B0B7649
P 5550 1500
F 0 "P26" H 5550 1580 50  0000 C CNN
F 1 "Testpoint" H 5740 1510 50  0001 C CNN
F 2 "FootprintLib:Testpoint_0.4mm" H 5550 1500 100 0001 C CNN
F 3 "" H 5550 1500 100 0001 C CNN
	1    5550 1500
	1    0    0    -1  
$EndComp
$Comp
L R R10
U 1 1 5B0B764A
P 4050 2200
F 0 "R10" V 4130 2200 50  0000 C CNN
F 1 "470" V 4050 2200 50  0000 C CNN
F 2 "Resistors_SMD:R_0603_HandSoldering" V 3980 2200 50  0001 C CNN
F 3 "" H 4050 2200 50  0001 C CNN
	1    4050 2200
	-1   0    0    1   
$EndComp
$Comp
L R R13
U 1 1 5B0B764B
P 5850 2200
F 0 "R13" V 5930 2200 50  0000 C CNN
F 1 "470" V 5850 2200 50  0000 C CNN
F 2 "Resistors_SMD:R_0603_HandSoldering" V 5780 2200 50  0001 C CNN
F 3 "" H 5850 2200 50  0001 C CNN
	1    5850 2200
	1    0    0    -1  
$EndComp
$Comp
L LED D16
U 1 1 5B0B764E
P 5850 1800
F 0 "D16" H 5850 1900 50  0000 C CNN
F 1 "White" H 5950 1700 50  0000 C CNN
F 2 "LEDs:LED_0603_HandSoldering" H 5850 1800 50  0001 C CNN
F 3 "" H 5850 1800 50  0001 C CNN
	1    5850 1800
	0    -1   -1   0   
$EndComp
$Comp
L LED D6
U 1 1 5B0B764F
P 4300 1800
F 0 "D6" H 4050 1750 50  0000 C CNN
F 1 "Red" H 4200 1900 50  0000 C CNN
F 2 "LEDs:LED_0603_HandSoldering" H 4300 1800 50  0001 C CNN
F 3 "" H 4300 1800 50  0001 C CNN
	1    4300 1800
	0    1    1    0   
$EndComp
Text Notes 4050 1100 0    100  ~ 0
Revers Voltage Protection
$Comp
L Testpoint P18
U 1 1 5B0B7651
P 4400 1950
F 0 "P18" H 4400 2030 50  0000 C CNN
F 1 "Testpoint" H 4590 1960 50  0001 C CNN
F 2 "FootprintLib:Testpoint_0.4mm" H 4400 1950 100 0001 C CNN
F 3 "" H 4400 1950 100 0001 C CNN
	1    4400 1950
	1    0    0    -1  
$EndComp
$Comp
L Testpoint P27
U 1 1 5B0B7652
P 6000 1950
F 0 "P27" H 6000 2030 50  0000 C CNN
F 1 "Testpoint" H 6190 1960 50  0001 C CNN
F 2 "FootprintLib:Testpoint_0.4mm" H 6000 1950 100 0001 C CNN
F 3 "" H 6000 1950 100 0001 C CNN
	1    6000 1950
	1    0    0    -1  
$EndComp
$Comp
L LMR14030 U9
U 1 1 5B0B7653
P 4100 4450
F 0 "U9" H 3800 4850 50  0000 C CNN
F 1 "LMR14030" H 4250 4850 50  0000 C CNN
F 2 "Housings_SOIC:HTSOP-8-1EP_3.9x4.9mm_Pitch1.27mm_ThermalVias" H 4050 4100 50  0001 C CNN
F 3 "" H 4050 4100 50  0001 C CNN
	1    4100 4450
	1    0    0    -1  
$EndComp
$Comp
L R R8
U 1 1 5B0B7654
P 2650 4100
F 0 "R8" V 2730 4100 50  0000 C CNN
F 1 "100K" V 2650 4100 50  0000 C CNN
F 2 "Resistors_SMD:R_0603_HandSoldering" V 2580 4100 50  0001 C CNN
F 3 "" H 2650 4100 50  0001 C CNN
	1    2650 4100
	1    0    0    -1  
$EndComp
$Comp
L Testpoint P6
U 1 1 5B0B7657
P 2850 4250
F 0 "P6" H 2850 4330 50  0000 C CNN
F 1 "Testpoint" H 3040 4260 50  0001 C CNN
F 2 "FootprintLib:Testpoint_0.4mm" H 2850 4250 100 0001 C CNN
F 3 "" H 2850 4250 100 0001 C CNN
	1    2850 4250
	1    0    0    -1  
$EndComp
$Comp
L C C6
U 1 1 5B0B765A
P 4950 4200
F 0 "C6" V 5050 4050 50  0000 L CNN
F 1 "100n/50V" V 4800 4000 50  0000 L CNN
F 2 "Capacitors_SMD:C_0603_HandSoldering" H 4988 4050 50  0001 C CNN
F 3 "" H 4950 4200 50  0001 C CNN
	1    4950 4200
	0    -1   -1   0   
$EndComp
$Comp
L Testpoint P23
U 1 1 5B0B765B
P 4700 4150
F 0 "P23" H 4700 4230 50  0000 C CNN
F 1 "Testpoint" H 4890 4160 50  0001 C CNN
F 2 "FootprintLib:Testpoint_0.4mm" H 4700 4150 100 0001 C CNN
F 3 "" H 4700 4150 100 0001 C CNN
	1    4700 4150
	1    0    0    -1  
$EndComp
$Comp
L Testpoint P24
U 1 1 5B0B765C
P 5200 4150
F 0 "P24" H 5200 4230 50  0000 C CNN
F 1 "Testpoint" H 5390 4160 50  0001 C CNN
F 2 "FootprintLib:Testpoint_0.4mm" H 5200 4150 100 0001 C CNN
F 3 "" H 5200 4150 100 0001 C CNN
	1    5200 4150
	1    0    0    -1  
$EndComp
$Comp
L R_1% R15
U 1 1 5B0B765D
P 7050 4400
F 0 "R15" V 7135 4395 50  0000 C CNN
F 1 "100K" V 6965 4405 50  0000 C CNN
F 2 "Resistors_SMD:R_0603_HandSoldering" V 6980 4400 50  0001 C CNN
F 3 "" H 7050 4400 50  0001 C CNN
	1    7050 4400
	1    0    0    -1  
$EndComp
$Comp
L R_1% R16
U 1 1 5B0B765E
P 7050 4800
F 0 "R16" V 7135 4795 50  0000 C CNN
F 1 "22K" V 6965 4805 50  0000 C CNN
F 2 "Resistors_SMD:R_0603_HandSoldering" V 6980 4800 50  0001 C CNN
F 3 "" H 7050 4800 50  0001 C CNN
	1    7050 4800
	1    0    0    -1  
$EndComp
$Comp
L Testpoint P32
U 1 1 5B0B7660
P 7250 4550
F 0 "P32" H 7250 4630 50  0000 C CNN
F 1 "Testpoint" H 7440 4560 50  0001 C CNN
F 2 "FootprintLib:Testpoint_0.4mm" H 7250 4550 100 0001 C CNN
F 3 "" H 7250 4550 100 0001 C CNN
	1    7250 4550
	1    0    0    -1  
$EndComp
$Comp
L Testpoint P7
U 1 1 5B0B7662
P 3050 4250
F 0 "P7" H 3050 4330 50  0000 C CNN
F 1 "Testpoint" H 3240 4260 50  0001 C CNN
F 2 "FootprintLib:Testpoint_0.4mm" H 3050 4250 100 0001 C CNN
F 3 "" H 3050 4250 100 0001 C CNN
	1    3050 4250
	1    0    0    -1  
$EndComp
$Comp
L C C4
U 1 1 5B0B7664
P 3300 4750
F 0 "C4" V 3350 4800 50  0000 L CNN
F 1 "22n" V 3250 4800 50  0000 L CNN
F 2 "Capacitors_SMD:C_0603_HandSoldering" H 3338 4600 50  0001 C CNN
F 3 "" H 3300 4750 50  0001 C CNN
	1    3300 4750
	1    0    0    -1  
$EndComp
$Comp
L Testpoint P14
U 1 1 5B0B7666
P 3300 4250
F 0 "P14" H 3300 4330 50  0000 C CNN
F 1 "Testpoint" H 3490 4260 50  0001 C CNN
F 2 "FootprintLib:Testpoint_0.4mm" H 3300 4250 100 0001 C CNN
F 3 "" H 3300 4250 100 0001 C CNN
	1    3300 4250
	1    0    0    -1  
$EndComp
$Comp
L L-RESCUE-PowerControlUnit L7
U 1 1 5B0B766A
P 5650 4200
F 0 "L7" H 5500 4250 50  0000 C CNN
F 1 "3.3uH" H 5850 4250 50  0000 C CNN
F 2 "Inductors_SMD:L_7.3x7.3_H3.5" V 5650 4200 50  0001 C CNN
F 3 "" V 5650 4200 50  0001 C CNN
F 4 "HPI0624-3R3" H 5650 4350 50  0000 C CNN "Type"
	1    5650 4200
	1    0    0    -1  
$EndComp
$Comp
L Testpoint P31
U 1 1 5B0B766B
P 7050 4150
F 0 "P31" H 7050 4230 50  0000 C CNN
F 1 "Testpoint" H 7240 4160 50  0001 C CNN
F 2 "FootprintLib:Testpoint_0.4mm" H 7050 4150 100 0001 C CNN
F 3 "" H 7050 4150 100 0001 C CNN
	1    7050 4150
	1    0    0    -1  
$EndComp
$Comp
L C C7
U 1 1 5B0B766C
P 5850 4600
F 0 "C7" H 5875 4700 50  0000 L CNN
F 1 "22u/10V" V 6000 4250 50  0000 L CNN
F 2 "Capacitors_SMD:C_0603_HandSoldering" H 5888 4450 50  0001 C CNN
F 3 "" H 5850 4600 50  0001 C CNN
F 4 "X5R" V 5900 4400 60  0000 C CNN "Type"
F 5 "GRM188R61A226ME15D" H 6200 3950 60  0000 C CNN "Name"
	1    5850 4600
	1    0    0    -1  
$EndComp
$Comp
L SCHOTTKY D7
U 1 1 5B0B7670
P 5400 4600
F 0 "D7" H 5400 4700 50  0000 C CNN
F 1 "SK52-DIO" H 5400 4500 50  0000 C CNN
F 2 "Diodes_SMD:D_SMB_Handsoldering" H 5400 4600 50  0001 C CNN
F 3 "" H 5400 4600 50  0001 C CNN
	1    5400 4600
	0    1    1    0   
$EndComp
Text Notes 3850 3650 0    100  ~ 0
Payload 4.1V / 3A DCDC Converter
$Comp
L Testpoint P16
U 1 1 5B0B7675
P 3800 2200
F 0 "P16" H 3800 2280 50  0000 C CNN
F 1 "Testpoint" H 3990 2210 50  0001 C CNN
F 2 "FootprintLib:Testpoint_0.4mm" H 3800 2200 100 0001 C CNN
F 3 "" H 3800 2200 100 0001 C CNN
	1    3800 2200
	1    0    0    -1  
$EndComp
$Comp
L R R17
U 1 1 5B0B7676
P 7400 4400
F 0 "R17" V 7480 4400 50  0000 C CNN
F 1 "100" V 7400 4400 50  0000 C CNN
F 2 "Resistors_SMD:R_0603_HandSoldering" V 7330 4400 50  0001 C CNN
F 3 "" H 7400 4400 50  0001 C CNN
	1    7400 4400
	1    0    0    -1  
$EndComp
$Comp
L LED D17
U 1 1 5B0B7678
P 7400 4800
F 0 "D17" H 7400 4900 50  0000 C CNN
F 1 "White" H 7400 4700 50  0000 C CNN
F 2 "LEDs:LED_0603_HandSoldering" H 7400 4800 50  0001 C CNN
F 3 "" H 7400 4800 50  0001 C CNN
	1    7400 4800
	0    -1   -1   0   
$EndComp
$Comp
L Testpoint P33
U 1 1 5B0B7679
P 7650 4550
F 0 "P33" H 7650 4630 50  0000 C CNN
F 1 "Testpoint" H 7840 4560 50  0001 C CNN
F 2 "FootprintLib:Testpoint_0.4mm" H 7650 4550 100 0001 C CNN
F 3 "" H 7650 4550 100 0001 C CNN
	1    7650 4550
	1    0    0    -1  
$EndComp
$Comp
L C C8
U 1 1 5B0B767A
P 6100 4600
F 0 "C8" H 6125 4700 50  0000 L CNN
F 1 "22u/10V" V 6250 4250 50  0000 L CNN
F 2 "Capacitors_SMD:C_0603_HandSoldering" H 6138 4450 50  0001 C CNN
F 3 "" H 6100 4600 50  0001 C CNN
F 4 "X5R" V 6150 4400 60  0000 C CNN "Type"
	1    6100 4600
	1    0    0    -1  
$EndComp
Text HLabel 3200 1550 0    50   Input ~ 0
Gondola_BAT+
Text HLabel 3200 2350 0    50   Input ~ 0
Gondola_BAT-
$Comp
L R R11
U 1 1 5B0B7739
P 4300 2200
F 0 "R11" V 4380 2200 50  0000 C CNN
F 1 "470" V 4300 2200 50  0000 C CNN
F 2 "Resistors_SMD:R_0603_HandSoldering" V 4230 2200 50  0001 C CNN
F 3 "" H 4300 2200 50  0001 C CNN
	1    4300 2200
	1    0    0    -1  
$EndComp
$Comp
L LED D5
U 1 1 5B0B773A
P 4050 1650
F 0 "D5" H 3900 1750 50  0000 C CNN
F 1 "Green" H 4100 1750 50  0000 C CNN
F 2 "LEDs:LED_0603_HandSoldering" H 4050 1650 50  0001 C CNN
F 3 "" H 4050 1650 50  0001 C CNN
	1    4050 1650
	0    -1   -1   0   
$EndComp
$Comp
L Testpoint P17
U 1 1 5B0B773C
P 4150 1950
F 0 "P17" H 4150 2030 50  0000 C CNN
F 1 "Testpoint" H 4340 1960 50  0001 C CNN
F 2 "FootprintLib:Testpoint_0.4mm" H 4150 1950 100 0001 C CNN
F 3 "" H 4150 1950 100 0001 C CNN
	1    4150 1950
	1    0    0    -1  
$EndComp
$Comp
L SW_SPDT SW3
U 1 1 5B0B7742
P 3600 2250
F 0 "SW3" H 3700 2450 50  0000 C CNN
F 1 "SW_SPDT" H 3700 2050 50  0000 C CNN
F 2 "FootprintLib:Switch_SS22T35﻿" H 3600 2250 50  0001 C CNN
F 3 "" H 3600 2250 50  0001 C CNN
	1    3600 2250
	-1   0    0    -1  
$EndComp
$Comp
L R R9
U 1 1 5B0B7743
P 3050 4650
F 0 "R9" V 3130 4650 50  0000 C CNN
F 1 "15K" V 3050 4650 50  0000 C CNN
F 2 "Resistors_SMD:R_0603_HandSoldering" V 2980 4650 50  0001 C CNN
F 3 "" H 3050 4650 50  0001 C CNN
	1    3050 4650
	1    0    0    -1  
$EndComp
$Comp
L C C22
U 1 1 5B0B7744
P 2050 4450
F 0 "C22" H 2075 4550 50  0000 L CNN
F 1 "4u7/25V" V 2200 4150 50  0000 L CNN
F 2 "Capacitors_SMD:C_1206_HandSoldering" H 2088 4300 50  0001 C CNN
F 3 "" H 2050 4450 50  0001 C CNN
F 4 "X7R" V 1950 4300 60  0000 C CNN "Type"
F 5 "CL31B475" V 1850 4300 60  0000 C CNN "Name"
	1    2050 4450
	1    0    0    -1  
$EndComp
$Comp
L C C60
U 1 1 5B0B7745
P 2350 4450
F 0 "C60" H 2400 4550 50  0000 L CNN
F 1 "100n/50V" V 2550 4100 50  0000 L CNN
F 2 "Capacitors_SMD:C_0603_HandSoldering" H 2388 4300 50  0001 C CNN
F 3 "" H 2350 4450 50  0001 C CNN
	1    2350 4450
	1    0    0    -1  
$EndComp
$Comp
L C C11
U 1 1 5B0B7749
P 6350 4600
F 0 "C11" H 6375 4700 50  0000 L CNN
F 1 "22u/10V" V 6500 4250 50  0000 L CNN
F 2 "Capacitors_SMD:C_0603_HandSoldering" H 6388 4450 50  0001 C CNN
F 3 "" H 6350 4600 50  0001 C CNN
F 4 "X5R" V 6400 4400 60  0000 C CNN "Type"
	1    6350 4600
	1    0    0    -1  
$EndComp
$Comp
L Testpoint P13
U 1 1 5B0B774B
P 3300 2300
F 0 "P13" H 3300 2380 50  0000 C CNN
F 1 "Testpoint" H 3490 2310 50  0001 C CNN
F 2 "FootprintLib:Testpoint_0.4mm" H 3300 2300 100 0001 C CNN
F 3 "" H 3300 2300 100 0001 C CNN
	1    3300 2300
	1    0    0    -1  
$EndComp
$Comp
L C_TAN C12
U 1 1 5B0B774C
P 6400 1950
F 0 "C12" H 6425 2050 50  0000 L CNN
F 1 "22u" H 6425 1850 50  0000 L CNN
F 2 "Capacitors_Tantalum_SMD:CP_Tantalum_Case-B_EIA-3528-21_Hand" H 6438 1800 50  0001 C CNN
F 3 "" H 6400 1950 50  0001 C CNN
F 4 "293D226" V 6250 1950 60  0000 C CNN "Name"
	1    6400 1950
	1    0    0    -1  
$EndComp
$Comp
L C_TAN C13
U 1 1 5B0B774E
P 6700 4600
F 0 "C13" H 6725 4700 50  0000 L CNN
F 1 "22u" H 6725 4500 50  0000 L CNN
F 2 "Capacitors_Tantalum_SMD:CP_Tantalum_Case-B_EIA-3528-21_Hand" H 6738 4450 50  0001 C CNN
F 3 "" H 6700 4600 50  0001 C CNN
F 4 "293D226" V 6550 4600 60  0000 C CNN "Name"
	1    6700 4600
	1    0    0    -1  
$EndComp
$Comp
L +5V #PWR0105
U 1 1 5B0BD0F9
P 7400 4150
F 0 "#PWR0105" H 7400 4000 50  0001 C CNN
F 1 "+5V" H 7400 4290 50  0000 C CNN
F 2 "" H 7400 4150 50  0001 C CNN
F 3 "" H 7400 4150 50  0001 C CNN
	1    7400 4150
	1    0    0    -1  
$EndComp
Text HLabel 8400 4200 2    50   Input ~ 0
+5V
Text HLabel 8400 4600 2    50   Input ~ 0
GNDD
Wire Wire Line
	8250 5000 8250 4600
Wire Wire Line
	8250 4600 8400 4600
Wire Wire Line
	5800 4200 8400 4200
Connection ~ 3300 2350
Wire Wire Line
	3300 2300 3300 2350
Wire Wire Line
	3800 1450 4350 1450
Wire Wire Line
	3800 1550 3200 1550
Wire Wire Line
	3800 2250 3800 2250
Wire Wire Line
	3200 2350 3400 2350
Connection ~ 6700 4200
Wire Wire Line
	6700 4200 6700 4450
Wire Wire Line
	6700 5000 6700 4750
Wire Wire Line
	6400 2400 6400 2100
Connection ~ 6400 1550
Wire Wire Line
	6400 1550 6400 1800
Wire Wire Line
	4050 1500 4050 1450
Wire Wire Line
	4300 1950 4300 2050
Wire Wire Line
	4050 1800 4050 2050
Wire Wire Line
	5850 1950 5850 2050
Wire Wire Line
	4700 1750 4750 1750
Wire Wire Line
	5150 1950 5150 2050
Wire Wire Line
	5350 2000 5350 1950
Connection ~ 5150 2000
Wire Wire Line
	5150 2000 5550 2000
Wire Wire Line
	4100 4950 4100 4900
Connection ~ 6350 4200
Wire Wire Line
	6350 4200 6350 4450
Wire Wire Line
	6350 5000 6350 4750
Wire Wire Line
	2050 3900 2050 4300
Wire Wire Line
	2350 3900 2350 4300
Wire Wire Line
	2350 4900 2350 4600
Wire Wire Line
	2050 4900 2050 4600
Connection ~ 4050 2000
Wire Wire Line
	4150 2000 4050 2000
Wire Wire Line
	4150 1950 4150 2000
Connection ~ 4050 1450
Wire Wire Line
	4050 2400 4050 2350
Wire Wire Line
	4400 2000 4300 2000
Connection ~ 4300 2000
Connection ~ 3800 2250
Wire Wire Line
	3800 2200 3800 2400
Connection ~ 7400 4200
Connection ~ 7400 4600
Wire Wire Line
	7650 4600 7650 4550
Wire Wire Line
	7400 4600 7650 4600
Wire Wire Line
	7400 5000 7400 4950
Wire Wire Line
	7400 4550 7400 4650
Wire Wire Line
	4400 1950 4400 2000
Connection ~ 5850 1550
Wire Wire Line
	5850 1550 5850 1650
Wire Wire Line
	5400 4750 5400 5000
Connection ~ 5400 4200
Wire Wire Line
	5400 4200 5400 4450
Wire Wire Line
	6100 5000 6100 4750
Wire Wire Line
	5850 5000 5850 4750
Connection ~ 5850 4200
Wire Wire Line
	7400 4150 7400 4250
Wire Wire Line
	3500 4600 3550 4600
Wire Wire Line
	3500 4950 3500 4600
Connection ~ 3300 4500
Wire Wire Line
	3300 4500 3550 4500
Wire Wire Line
	3300 4250 3300 4600
Wire Wire Line
	3300 4950 3300 4900
Wire Wire Line
	3050 4950 3050 4800
Connection ~ 3050 4400
Wire Wire Line
	3050 4400 3550 4400
Wire Wire Line
	3050 4250 3050 4500
Wire Wire Line
	5850 4200 5850 4450
Wire Wire Line
	7250 4600 7250 4550
Wire Wire Line
	7050 5000 7050 4950
Connection ~ 7050 4600
Wire Wire Line
	7050 4550 7050 4650
Connection ~ 5200 4200
Wire Wire Line
	5200 4400 4650 4400
Wire Wire Line
	5200 4150 5200 4400
Wire Wire Line
	5100 4200 5500 4200
Connection ~ 4700 4200
Wire Wire Line
	4700 4150 4700 4200
Wire Wire Line
	4650 4200 4800 4200
Connection ~ 2850 4300
Wire Wire Line
	2850 4250 2850 4300
Wire Wire Line
	2650 3900 2650 3950
Wire Wire Line
	2650 4300 3550 4300
Wire Wire Line
	2650 4250 2650 4300
Wire Wire Line
	3500 4200 3550 4200
Wire Wire Line
	3500 3900 3500 4200
Connection ~ 5850 2000
Wire Wire Line
	6000 2000 6000 1950
Wire Wire Line
	5850 2000 6000 2000
Connection ~ 3800 1450
Wire Wire Line
	3800 1400 3800 1550
Wire Wire Line
	4300 1450 4300 1650
Wire Wire Line
	5150 2400 5150 2350
Connection ~ 4700 1750
Wire Wire Line
	5850 2400 5850 2350
Wire Wire Line
	4300 2350 4300 2400
Wire Wire Line
	1750 3900 3500 3900
Wire Wire Line
	4650 1450 4750 1450
Wire Wire Line
	4700 1400 4700 1750
Connection ~ 4700 1450
Wire Wire Line
	4700 1650 4750 1650
Connection ~ 4700 1650
Wire Wire Line
	4700 1550 4750 1550
Connection ~ 4700 1550
Wire Wire Line
	5550 1500 5550 1600
Connection ~ 5550 1550
Wire Wire Line
	5550 2000 5550 1900
Connection ~ 5350 2000
Connection ~ 4300 1450
Wire Wire Line
	6100 4200 6100 4450
Connection ~ 6100 4200
Wire Wire Line
	7050 4150 7050 4250
Connection ~ 7050 4200
Wire Wire Line
	6900 4600 7250 4600
Wire Wire Line
	4650 4600 5000 4600
Wire Wire Line
	5000 4600 5000 5400
Wire Wire Line
	5000 5400 6900 5400
Wire Wire Line
	6900 5400 6900 4600
Connection ~ 2650 3900
Text HLabel 8400 3850 2    50   Input ~ 0
Gondola_+BATT
$Comp
L GNDD #PWR0106
U 1 1 5B0C6649
P 3800 2400
F 0 "#PWR0106" H 3800 2150 50  0001 C CNN
F 1 "GNDD" H 3800 2275 50  0000 C CNN
F 2 "" H 3800 2400 50  0001 C CNN
F 3 "" H 3800 2400 50  0001 C CNN
	1    3800 2400
	1    0    0    -1  
$EndComp
$Comp
L GNDD #PWR0107
U 1 1 5B0C73C5
P 4050 2400
F 0 "#PWR0107" H 4050 2150 50  0001 C CNN
F 1 "GNDD" H 4050 2275 50  0000 C CNN
F 2 "" H 4050 2400 50  0001 C CNN
F 3 "" H 4050 2400 50  0001 C CNN
	1    4050 2400
	1    0    0    -1  
$EndComp
$Comp
L GNDD #PWR0108
U 1 1 5B0C745A
P 4300 2400
F 0 "#PWR0108" H 4300 2150 50  0001 C CNN
F 1 "GNDD" H 4300 2275 50  0000 C CNN
F 2 "" H 4300 2400 50  0001 C CNN
F 3 "" H 4300 2400 50  0001 C CNN
	1    4300 2400
	1    0    0    -1  
$EndComp
$Comp
L GNDD #PWR0109
U 1 1 5B0C74EF
P 5150 2400
F 0 "#PWR0109" H 5150 2150 50  0001 C CNN
F 1 "GNDD" H 5150 2275 50  0000 C CNN
F 2 "" H 5150 2400 50  0001 C CNN
F 3 "" H 5150 2400 50  0001 C CNN
	1    5150 2400
	1    0    0    -1  
$EndComp
$Comp
L GNDD #PWR0110
U 1 1 5B0C7584
P 5850 2400
F 0 "#PWR0110" H 5850 2150 50  0001 C CNN
F 1 "GNDD" H 5850 2275 50  0000 C CNN
F 2 "" H 5850 2400 50  0001 C CNN
F 3 "" H 5850 2400 50  0001 C CNN
	1    5850 2400
	1    0    0    -1  
$EndComp
$Comp
L GNDD #PWR0111
U 1 1 5B0C786F
P 6400 2400
F 0 "#PWR0111" H 6400 2150 50  0001 C CNN
F 1 "GNDD" H 6400 2275 50  0000 C CNN
F 2 "" H 6400 2400 50  0001 C CNN
F 3 "" H 6400 2400 50  0001 C CNN
	1    6400 2400
	1    0    0    -1  
$EndComp
$Comp
L GNDD #PWR0112
U 1 1 5B0C7998
P 2050 4900
F 0 "#PWR0112" H 2050 4650 50  0001 C CNN
F 1 "GNDD" H 2050 4775 50  0000 C CNN
F 2 "" H 2050 4900 50  0001 C CNN
F 3 "" H 2050 4900 50  0001 C CNN
	1    2050 4900
	1    0    0    -1  
$EndComp
$Comp
L GNDD #PWR0113
U 1 1 5B0C7AC1
P 2350 4900
F 0 "#PWR0113" H 2350 4650 50  0001 C CNN
F 1 "GNDD" H 2350 4775 50  0000 C CNN
F 2 "" H 2350 4900 50  0001 C CNN
F 3 "" H 2350 4900 50  0001 C CNN
	1    2350 4900
	1    0    0    -1  
$EndComp
$Comp
L GNDD #PWR0114
U 1 1 5B0C7B56
P 3050 4950
F 0 "#PWR0114" H 3050 4700 50  0001 C CNN
F 1 "GNDD" H 3050 4825 50  0000 C CNN
F 2 "" H 3050 4950 50  0001 C CNN
F 3 "" H 3050 4950 50  0001 C CNN
	1    3050 4950
	1    0    0    -1  
$EndComp
$Comp
L GNDD #PWR0115
U 1 1 5B0C7DB7
P 3300 4950
F 0 "#PWR0115" H 3300 4700 50  0001 C CNN
F 1 "GNDD" H 3300 4825 50  0000 C CNN
F 2 "" H 3300 4950 50  0001 C CNN
F 3 "" H 3300 4950 50  0001 C CNN
	1    3300 4950
	1    0    0    -1  
$EndComp
$Comp
L GNDD #PWR0116
U 1 1 5B0C7E4C
P 3500 4950
F 0 "#PWR0116" H 3500 4700 50  0001 C CNN
F 1 "GNDD" H 3500 4825 50  0000 C CNN
F 2 "" H 3500 4950 50  0001 C CNN
F 3 "" H 3500 4950 50  0001 C CNN
	1    3500 4950
	1    0    0    -1  
$EndComp
$Comp
L GNDD #PWR0117
U 1 1 5B0C7EE1
P 4100 4950
F 0 "#PWR0117" H 4100 4700 50  0001 C CNN
F 1 "GNDD" H 4100 4825 50  0000 C CNN
F 2 "" H 4100 4950 50  0001 C CNN
F 3 "" H 4100 4950 50  0001 C CNN
	1    4100 4950
	1    0    0    -1  
$EndComp
$Comp
L GNDD #PWR0118
U 1 1 5B0C7F76
P 5400 5000
F 0 "#PWR0118" H 5400 4750 50  0001 C CNN
F 1 "GNDD" H 5400 4875 50  0000 C CNN
F 2 "" H 5400 5000 50  0001 C CNN
F 3 "" H 5400 5000 50  0001 C CNN
	1    5400 5000
	1    0    0    -1  
$EndComp
$Comp
L GNDD #PWR0119
U 1 1 5B0C800B
P 5850 5000
F 0 "#PWR0119" H 5850 4750 50  0001 C CNN
F 1 "GNDD" H 5850 4875 50  0000 C CNN
F 2 "" H 5850 5000 50  0001 C CNN
F 3 "" H 5850 5000 50  0001 C CNN
	1    5850 5000
	1    0    0    -1  
$EndComp
$Comp
L GNDD #PWR0120
U 1 1 5B0C8718
P 6100 5000
F 0 "#PWR0120" H 6100 4750 50  0001 C CNN
F 1 "GNDD" H 6100 4875 50  0000 C CNN
F 2 "" H 6100 5000 50  0001 C CNN
F 3 "" H 6100 5000 50  0001 C CNN
	1    6100 5000
	1    0    0    -1  
$EndComp
$Comp
L GNDD #PWR0121
U 1 1 5B0C87AD
P 6350 5000
F 0 "#PWR0121" H 6350 4750 50  0001 C CNN
F 1 "GNDD" H 6350 4875 50  0000 C CNN
F 2 "" H 6350 5000 50  0001 C CNN
F 3 "" H 6350 5000 50  0001 C CNN
	1    6350 5000
	1    0    0    -1  
$EndComp
$Comp
L GNDD #PWR0122
U 1 1 5B0C8842
P 6700 5000
F 0 "#PWR0122" H 6700 4750 50  0001 C CNN
F 1 "GNDD" H 6700 4875 50  0000 C CNN
F 2 "" H 6700 5000 50  0001 C CNN
F 3 "" H 6700 5000 50  0001 C CNN
	1    6700 5000
	1    0    0    -1  
$EndComp
$Comp
L GNDD #PWR0123
U 1 1 5B0C88D7
P 7050 5000
F 0 "#PWR0123" H 7050 4750 50  0001 C CNN
F 1 "GNDD" H 7050 4875 50  0000 C CNN
F 2 "" H 7050 5000 50  0001 C CNN
F 3 "" H 7050 5000 50  0001 C CNN
	1    7050 5000
	1    0    0    -1  
$EndComp
$Comp
L GNDD #PWR0124
U 1 1 5B0C896C
P 7400 5000
F 0 "#PWR0124" H 7400 4750 50  0001 C CNN
F 1 "GNDD" H 7400 4875 50  0000 C CNN
F 2 "" H 7400 5000 50  0001 C CNN
F 3 "" H 7400 5000 50  0001 C CNN
	1    7400 5000
	1    0    0    -1  
$EndComp
$Comp
L GNDD #PWR0125
U 1 1 5B0C8CE1
P 8250 5000
F 0 "#PWR0125" H 8250 4750 50  0001 C CNN
F 1 "GNDD" H 8250 4875 50  0000 C CNN
F 2 "" H 8250 5000 50  0001 C CNN
F 3 "" H 8250 5000 50  0001 C CNN
	1    8250 5000
	1    0    0    -1  
$EndComp
Text GLabel 6650 1550 2    50   Input ~ 0
Gondola_+BATT
Text GLabel 8250 3850 0    50   Input ~ 0
Gondola_+BATT
Wire Wire Line
	8250 3850 8400 3850
Text GLabel 1750 3900 0    50   Input ~ 0
Gondola_+BATT
Connection ~ 2050 3900
Connection ~ 2350 3900
Wire Wire Line
	5400 1550 6650 1550
$EndSCHEMATC
